POSITIVE:

Frequency
1:    in the        2155
2:    to be         1678
3:    going to      1585
4:    i have        1566
5:    of the        1496
6:    i am          1474
7:    and i         1422
8:    if you        1270
9:    to the        1217
10:   for the       1137
11:   on the        1115
12:   i love        1102
13:   i don't       1027
14:   want to       991
15:   to do         929
16:   i can         916
17:   to go         901
18:   i just        890
19:   in my         872
20:   in a          858
21:   to get        846
22:   is a          839
23:   i think       811
24:   have to       807
25:   but i         788
26:   i was         788
27:   at the        782
28:   have a        774
29:   that i        767
30:   for a         765
31:   of my         728
32:   i want        701
33:   it was        691
34:   it is         687
35:   had a         676
36:   a good        648
37:   on my         647
38:   when i        642
39:   out of        632
40:   is the        630
41:   i need        628
42:   you are       622
43:   if i          619
44:   will be       614
45:   i hate        608
46:   i will        607
47:   all the       604
48:   i can't       600
49:   this is       599
50:   go to         598
51:   like a        583
52:   so i          576
53:   you know      576
54:   and the       572
55:   to see        566
56:   i know        552
57:   need to       543
58:   i'm not       542
59:   i feel        530
60:   i got         528
61:   with the      520
62:   so much       519
63:   when you      500
64:   with my       499
65:   with a        497
66:   the world     496
67:   right now     483
68:   be a          479
69:   of a          478
70:   i had         476
71:   you have      464
72:   to me         462
73:   the best      461
74:   love you      449
75:   one of        433
76:   your status   431
77:   and a         429
78:   the same      427
79:   my life       424
80:   you can       417
81:   i could       410
82:   what i        407
83:   now i         406
84:   there is      394
85:   back to       388
86:   to my         387
87:   got a         384
88:   just got      383
89:   a little      381
90:   from the      374
91:   on a          368
92:   to make       366
93:   me i          365
94:   i get         363
95:   was a         363
96:   is not        360
97:   trying to     355
98:   time to       349
99:   i would       346
100:  me and        346

PMI
1:    georgia greenwood   13.2046867237
2:    harry potter        12.9512421506
3:    ice cream           12.3210903383
4:    blacky black        10.9201877579
5:    merry christmas     10.6043156781
6:    profile picture     10.3333819142
7:    looking forward     10.1989859738
8:    fly black           10.0124462658
9:    1 fly               9.37417018971
10:   each other          9.24179187531
11:   black guy           8.92962745383
12:   cant wait           8.2107548439
13:   high school         8.17446646706
14:   de la               8.15346272896
15:   <3 matthew          8.11793900917
16:   happy birthday      8.06860634209
17:   wait till           7.97432936352
18:   woke up             7.96975220955
19:   thank god           7.92615338544
20:   anyone else         7.84508927263
21:   wake up             7.76871625414
22:   can't wait          7.76270228739
23:   even though         7.71674022582
24:   best friend         7.69515355303
25:   hanging out         7.64952067858
26:   no longer           7.64188388263
27:   getting ready       7.63403507767
28:   an hour             7.62820068893
29:   year old            7.62336866992
30:   last night          7.60321026915
31:   few days            7.59892200147
32:   at least            7.58619131927
33:   no matter           7.54167981015
34:   hang out            7.45271997114
35:   next week           7.35075256165
36:   figure out          7.25995386682
37:   does anyone         7.15789497527
38:   once again          7.14492360069
39:   talking about       7.11973597293
40:   everyone else       7.09110828835
41:   their own           7.04449043494
42:   grow up             7.01907426992
43:   paste this          7.01884223523
44:   shut up             7.01569251154
45:   better than         7.01064689212
46:   i've been           7.00768757161
47:   turns out           6.99698386557
48:   next year           6.98404834278
49:   these days          6.95158764046
50:   can't believe       6.88962927678
51:   looks like          6.87750534272
52:   right now           6.87253604446
53:   someone else        6.84480497482
54:   pick up             6.8428270449
55:   matter how          6.84140433636
56:   more than           6.82529154192
57:   who knows           6.80805610572
58:   no idea             6.79513115861
59:   what happens        6.79232469904
60:   your status         6.75972394492
61:   new year            6.75467378815
62:   thinking about      6.74637776804
63:   those who           6.71956946303
64:   too much            6.64715791335
65:   new years           6.62722362333
66:   oh well             6.61519984502
67:   deal with           6.54019791123
68:   too many            6.53634353127
69:   how many            6.50143480773
70:   your wall           6.47550107698
71:   don't care          6.44873527485
72:   has been            6.40877448173
73:   found out           6.38048753212
74:   rid of              6.35221586501
75:   an awesome          6.33062772897
76:   feels like          6.30820524281
77:   be able             6.23989194064
78:   here right          6.23770250216
79:   why does            6.22436779279
80:   wonder if           6.19453319524
81:   just realized       6.19114537654
82:   bunch of            6.13629874647
83:   waiting for         6.03907147531
84:   away from           6.03701373491
85:   an amazing          6.03024920621
86:   lots of             6.02546317318
87:   good times          6.02325101617
88:   lack of             6.01165737365
89:   matter what         6.00164427202
90:   so far              5.9759658066
91:   new phone           5.97244288721
92:   post this           5.9589794215
93:   just finished       5.91940924555
94:   school tomorrow     5.9159267112
95:   your profile        5.89589392474
96:   there's no          5.88587750594
97:   kind of             5.87326434063
98:   much fun            5.86722228021
99:   in front            5.86295709654
100:  care about          5.83235252763
