POSITIVE:

Frequency
and i        1370
i don't      1296
i was        1207
i have       1188
but i        893
want to      839
i am         816
i just       797
that i       796
i feel       748
to be        721
in the       640
feel like    557
of my        550
when i       534
i can't      530
of the       503
in my        501
i can        494
don't know   447
i know       445
if i         433
because i    432
i had        430
to get       427
to do        424
i want       415
out of       376
it was       366
for a        362
in a         357
have a       351
my life      346
to the       327
so i         326
for the      322
going to     314
with my      311
i've been    299
a lot        298
what i       287
i think      276
know what    271
me to        271
don't want   269
to go        269
i could      259
like i       247
a few        245
at the       245
i'm not      245
have to      244
this is      241
i would      238
to my        233
on the       231
and my       230
to a         227
me and       223
have been    219
talk to      219
i need       216
i do         214
all the      210
and the      210
i didn't     207
to talk      207
able to      206
and that     206
me. i        205
need to      204
the only     202
have no      201
and it       200
lot of       200
had a        199
the same     197
to make      197
trying to    196
as i         195
go to        192
and i'm      190
it. i        186
was a        185
how to       184
i get        184
to me        181
what to      181
it is        180
like a       178
for me       176
try to       175
i really     174
don't have   171
my parents   171
wanted to    171
i got        169
would be     167
i still      166
on my        166


NEGATIVE

Frequency
of the        19688
in the        17862
i have        13958
and i         12150
to the        10425
i am          9902
on the        9806
i was         9762
to be         9468
but i         8406
for the       8312
want to       7932
for a         7651
have a        6797
i don't       6750
if you        6722
to get        6693
so i          6607
that i        6186
and the       6129
i can         5960
in a          5943
would be      5793
this is       5748
with the      5637
is a          5494
at the        5444
it was        5111
with a        4940
will be       4903
a few         4801
i just        4686
when i        4663
going to      4278
i would       4217
if i          4185
a lot         4173
from the      4137
is the        4125
looking for   4116
to do         4109
of my         4033
i know        3960
it is         3872
in my         3869
of a          3841
i want        3811
out of        3746
you can       3710
as a          3591
i had         3551
have to       3526
able to       3514
trying to     3469
do you        3395
i think       3391
i will        3387
to make       3379
like to       3366
the same      3359
have been     3264
all the       3195
one of        3139
need to       3127
on my         3127
be a          3109
to a          3091
on a          3065
and a         3056
the first     3007
lot of        2987
i'm not       2964
i've been     2869
and it        2847
you have      2820
that the      2731
i could       2707
to have       2697
as i          2668
to see        2667
a good        2641
i can't       2575
was a         2551
a little      2547
what i        2539
me to         2496
i need        2476
to go         2470
there is      2451
i feel        2439
a bit         2425
how to        2412
to my         2339
into the      2313
because i     2278
by the        2247
a new         2231
with my       2212
about the     2200
and then      2195
