NEGATIVE

Frequency
1:    in the        2396
2:    of the        1766
3:    to be         1689
4:    going to      1500
5:    i am          1433
6:    i have        1400
7:    if you        1269
8:    to the        1264
9:    for the       1239
10:   on the        1233
11:   and i         1116
12:   i love        1029
13:   to do         899
14:   to get        890
15:   want to       889
16:   for a         877
17:   to go         871
18:   in a          848
19:   i don't       846
20:   is a          804
21:   at the        803
22:   i can         791
23:   in my         780
24:   have a        765
25:   have to       753
26:   it is         740
27:   of my         733
28:   i think       703
29:   i was         683
30:   i just        671
31:   that i        668
32:   will be       667
33:   and the       658
34:   out of        647
35:   is the        627
36:   you are       623
37:   it was        622
38:   but i         621
39:   to see        603
40:   go to         599
41:   all the       590
42:   on my         589
43:   i will        565
44:   if i          558
45:   had a         546
46:   i need        541
47:   so i          529
48:   i want        525
49:   this is       523
50:   a good        522
51:   like a        505
52:   need to       505
53:   with the      494
54:   of a          477
55:   i can't       476
56:   back to       475
57:   when i        474
58:   be a          470
59:   with a        469
60:   the world     465
61:   you have      465
62:   i know        463
63:   i got         459
64:   from the      454
65:   you know      444
66:   and a         443
67:   the best      429
68:   i hate        427
69:   time to       418
70:   so much       416
71:   is not        410
72:   my life       410
73:   love you      407
74:   one of        407
75:   with my       400
76:   you can       395
77:   the day       394
78:   is going      386
79:   your status   382
80:   i feel        377
81:   to work       376
82:   a little      371
83:   to me         371
84:   on a          369
85:   to a          369
86:   to make       369
87:   right now     368
88:   now i         367
89:   trying to     367
90:   a new         362
91:   i get         362
92:   the first     362
93:   when you      362
94:   i'm not       360
95:   there is      360
96:   a lot         350
97:   to my         350
98:   what i        346
99:   i had         345
100:  to have       344

PMI
1:    harry potter       13.4138090089
2:    bla bla            13.0826162622
3:    today's jeopardy   12.1443368383
4:    asks today's       11.6197100008
5:    jeopardy answer    11.2591070255
6:    merry christmas    10.6860761899
7:    ha ha              10.5895410325
8:    profile picture    10.5307702765
9:    looking forward    10.0707882208
10:   each other         9.08841646556
11:   birthday wishes    9.07481373381
12:   10 10              8.98683124906
13:   cant wait          8.52278755536
14:   high school        8.25010336452
15:   can't wait         8.19928365625
16:   less than          8.17706618505
17:   wait till          8.0943611799
18:   woke up            7.97841118329
19:   thank god          7.9306552756
20:   anyone else        7.83887141982
21:   does anyone        7.82058636202
22:   wake up            7.76969269927
23:   no longer          7.76318838612
24:   even though        7.65850206682
25:   hanging out        7.63184738659
26:   happy birthday     7.62801254554
27:   at least           7.61127316365
28:   last night         7.58564745059
29:   once again         7.56729841384
30:   no matter          7.53958783138
31:   2 weeks            7.48145267034
32:   hang out           7.46407821692
33:   getting ready      7.43983067068
34:   year old           7.41107073453
35:   an hour            7.3967801094
36:   figure out         7.38315822154
37:   few days           7.35246431016
38:   can't believe      7.34471756502
39:   best friend        7.27163629255
40:   talking about      7.25861740523
41:   xd xd              7.25608195982
42:   everyone else      7.24301722478
43:   de la              7.1755586137
44:   let's see          7.16523901688
45:   next week          7.16121425688
46:   i've been          7.14630114956
47:   looks like         7.0702727583
48:   better than        7.02754849917
49:   how many           7.00841295703
50:   paste this         7.00311594913
51:   pick up            6.95643571277
52:   answer from        6.95634105378
53:   who knows          6.90324945313
54:   those who          6.89781556708
55:   your status        6.88533876817
56:   <3 <3              6.85227266351
57:   new year           6.84426656746
58:   thinking about     6.82919493836
59:   right now          6.81547167524
60:   feels like         6.7975599682
61:   more than          6.77438157146
62:   next year          6.63150029335
63:   pretty much        6.630549979
64:   deal with          6.60732520113
65:   too much           6.60321153575
66:   has been           6.56410054365
67:   your wall          6.45879816152
68:   re-post this       6.44355829223
69:   talk about         6.41510689291
70:   be able            6.38195901335
71:   new years          6.35686637738
72:   new phone          6.33555860809
73:   so far             6.31498960474
74:   don't care         6.30246019232
75:   why does           6.26290661569
76:   care about         6.25660307055
77:   just watched       6.25247555444
78:   your profile       6.21556366458
79:   feel like          6.20409277996
80:   an awesome         6.16024147471
81:   away from          6.12019325784
82:   an amazing         6.1154146087
83:   rid of             6.08448890369
84:   wonder if          6.06097262348
85:   who wants          6.06018763391
86:   oh well            6.05977931752
87:   good times         6.04384206076
88:   there's no         6.02369877458
89:   bunch of           6.02257980619
90:   post this          5.99855125719
91:   someone who        5.98936445749
92:   so much            5.96717301348
93:   many people        5.94508323519
94:   good morning       5.92928884404
95:   fact that          5.89671762973
96:   just finished      5.8839144867
97:   can't sleep        5.87273893329
98:   found out          5.87156787894
99:   school tomorrow    5.84575769642
100:  kind of            5.80307596854
