userid,time_completed,CES.D_score,date_added,ethnicity,marital_status,parents_together,depressed
b57dcbe1b484eb302cb9da59bf83f6a2,2011-02-09 02:26:13,34,2011-02-09 02:24:59,,,,1
beeb68b947eaec4a55a9d8d20a7c5b52,2011-02-09 05:16:22,33,2011-02-09 05:12:39,,,,1
0d4a51e22f36151b2e435ce3fd4eb6f9,2011-02-09 07:26:41,31,2011-02-09 07:25:02,White-American,Single,I am not 21 years old yet,1
a79d99cb1fe61ceea2737bb7fa6f9c53,2011-02-10 14:04:15,30,2011-02-10 14:02:44,White-British,Single,Yes,1
04a3601e8b319f740167723a58c488e7,2011-02-10 17:26:47,30,2011-02-10 17:24:51,White-American,Married,Yes,1
fc1c9fb6c64740edcbbf8cfe9dde8b02,2011-02-11 00:43:09,31,2011-02-11 00:41:46,African-American or African-European,Single,I am not 21 years old yet,1
ab3b4c66fe29289ad91c38b572215748,2011-02-11 06:46:38,32,2011-02-11 06:33:10,Other Asians,Single,I am not 21 years old yet,1
c1232df26ceef005d42e6b9fc2434159,2011-02-11 11:47:17,31,2011-02-11 11:45:11,White-British,Living with an unmarried partner,Yes,1
0ed835b3175cb77d3c9cb48c1528e29c,2011-02-11 11:46:46,30,2011-02-11 11:45:14,White-American,Single,No; and not in frequent contact with non-resident father,1
52bdd62b7694995847e70a1f25f03ef9,2011-02-11 11:49:25,38,2011-02-11 11:46:56,Middle Eastern,Single,Yes,1
077243dfd4750094bde7eb01e5cfcb42,2011-02-11 11:49:26,32,2011-02-11 11:47:32,Others,Single,Yes,1
9d73ecd9cf815d8bc340cd1bb8e94cfb,2011-02-11 12:15:58,48,2011-02-11 12:14:50,White-other nationalities,Single,I am not 21 years old yet,1
216924ec52555944d3d64c52390b359f,2011-02-11 12:33:59,40,2011-02-11 12:30:53,,,,1
6e2b38abfd32d966c121cb065b19507d,2011-09-21 02:08:11,35,2011-09-21 02:06:17,White-American,Single,No; and not in frequent contact with non-resident father,1
9baa0c47f086e39dcf830ed18b653ae3,2011-02-11 14:46:32,35,2011-02-11 14:45:10,Asian Chinese,Married,Yes,1
6b899312e494ce93b8a63ee5f3c138d5,2011-02-11 15:47:28,33,2011-02-11 15:44:48,White-American,Living with an unmarried partner,No; but in frequent contact with non-resident father,1
fdd7bb23407b15e190e70405063db57b,2011-02-11 21:20:53,39,2011-02-11 21:08:58,African-American or African-European,Single,I am not 21 years old yet,1
27f1cc2f566b95164881ec4553a71b65,2011-02-11 22:44:07,30,2011-02-11 22:42:16,White-American,Single,No; and not in frequent contact with non-resident father,1
673624376cb47f14958e55c55d15f85c,2011-02-12 00:59:39,37,2011-02-12 00:56:03,White-American,Divorced,Yes,1
601f343a14622332a92b593a459de56c,2011-02-12 04:28:57,32,2011-02-12 04:25:20,White-American,Married,Yes,1
b840c49223849e699af8fd0ffb0ff8b3,2011-02-12 04:51:37,30,2011-02-12 04:49:41,Other Asians,Single,Yes,1
30bf80c90e3fe56b9a50493a7f27b012,2011-02-12 05:46:13,36,2011-02-12 05:44:05,White-American,Single,I am not 21 years old yet,1
f3a86bbb3ca55c26f97074307e44d5f3,2011-02-12 09:48:14,32,2011-02-12 09:45:19,White-other nationalities,Divorced,No; and not in frequent contact with non-resident mother,1
cbc0e7679349c25766cfaca3a764f333,2011-02-12 11:38:50,31,2011-02-12 11:36:45,White-British,Living with an unmarried partner,No; and not in frequent contact with non-resident father,1
a428a1c5a00dae701742303ce9dcdf44,2011-02-12 14:29:50,30,2011-02-12 14:27:50,Others,Single,No; and not in frequent contact with non-resident father,1
64a0f6ca7fadb3a6e3f823dcea00ae27,2011-02-12 18:37:40,30,2011-02-12 18:36:13,White-American,Single,I am not 21 years old yet,1
6262f9ea246e00408561aa9a73c49175,2011-02-12 22:02:30,37,2011-02-12 22:01:22,White-American,Single,Other,1
ccd134a9a901e5562f3dff0f69305eba,2011-02-12 23:32:17,30,2011-02-12 23:27:13,African-American or African-European,Single,Yes,1
1a32585eabfae9612f70513dedbf9e27,2011-02-13 02:02:29,33,2011-02-13 02:00:56,White-other nationalities,Single,I am not 21 years old yet,1
8375086415bc4b649cfab71cf0768fd7,2011-11-02 18:39:10,31,2011-02-13 02:20:57,Other Asians,Single,I am not 21 years old yet,1
6bbc96794b1de1d531ad1168dd4da8a8,2011-02-13 03:06:21,35,2011-02-13 02:59:23,White-American,Single,I am not 21 years old yet,1
700ebf7d47c77ab999b158cec6d4f81d,2011-04-22 02:13:29,31,2011-04-22 02:11:33,White-American,Single,I am not 21 years old yet,1
65aa5b04d73c3d4fb823ba3c2d348293,2011-02-13 04:54:38,32,2011-02-13 04:43:13,Native American,Single,I am not 21 years old yet,1
74013e82812ab01a19624acd2eb5e7a6,2011-02-13 13:24:14,32,2011-02-13 13:20:28,White-American,Married,Yes,1
87a718e44be93a580cac8a40716a1c84,2011-02-13 16:06:16,30,2011-02-13 16:04:20,Other Asians,Single,I am not 21 years old yet,1
7b0d84345f034857f3c9cd793ee551ed,2011-02-13 18:06:10,31,2011-02-13 18:04:55,White-American,Divorced,Yes,1
03b6072a243347cf634eee1018be408d,2011-02-13 18:51:20,40,2011-02-13 18:49:49,White-American,Living with an unmarried partner,No; and not in frequent contact with non-resident father,1
4ed3b4bb6d3a730f193ff1337afc7741,2011-02-14 01:36:02,35,2011-02-14 01:29:36,Other Asians,Single,Yes,1
9504dafaba40702cd047f94871b6af59,2011-02-14 03:23:08,38,2011-02-14 03:21:02,African-American or African-European,Single,Other,1
bc619f7cbbdb1806e386554e4b33a439,2011-02-14 16:20:10,38,2011-02-14 16:18:48,Other Asians,Single,No; but in frequent contact with non-resident father,1
18c9b1bf258e266665b43e49cdae4dc5,2011-02-14 16:56:25,38,2011-02-14 16:54:49,Others,Single,Yes,1
9963eb029cd100ade5c37f057b7b13e9,2011-02-14 19:45:58,37,2011-02-14 19:42:49,White-American,Living with an unmarried partner,No; and not in frequent contact with non-resident father,1
0e1b88bcb9f1595af5857e03d719fca4,2011-06-21 04:33:00,30,2011-02-15 06:43:02,Others,Single,No; and not in frequent contact with non-resident father,1
bd7540dfcd6fe065f0f2543422e63b77,2011-02-15 16:48:23,35,2011-02-15 16:44:02,Other Asians,Single,Yes,1
eadb4d696eccf49f6e168e3610144d4c,2011-02-15 21:31:35,30,2011-02-15 21:30:10,White-American,,I am not 21 years old yet,1
338b6ea88faa458f7ec0d542a577ee3b,2011-02-15 21:47:07,30,2011-02-15 21:45:25,White-other nationalities,Single,Other,1
fbd681e79ebca2cd9509218403f23ec6,2011-02-15 23:41:01,31,2011-02-15 23:31:23,Asian Chinese,Single,I am not 21 years old yet,1
e61578d65e84826473ff9d74fa56456f,2011-02-16 00:52:37,34,2011-02-16 00:48:55,Middle Eastern,Single,Yes,1
c4987aa846a4935c2d07c14c11d79b2d,2011-02-16 03:28:00,34,2011-02-16 03:26:09,White-American,Married with child/children,Yes,1
c3dcf614104a24210bfac607cd63a9f2,2011-02-16 07:34:39,30,2011-02-16 07:31:14,Others,Single,Yes,1
d20ad22d61822231f4d3c005942351b1,2011-02-16 10:30:45,37,2011-02-16 10:29:00,White-American,Single,Other,1
6771a33cac9e781d6aaffdbbd7f30cb1,2011-02-16 19:42:46,34,2011-02-16 19:41:16,White-American,Single,I am not 21 years old yet,1
3cc0db55763257a91f1947ed77d8aac5,2011-02-16 22:04:59,33,2011-02-16 22:03:02,White-American,Single,Yes,1
311b0b87ac6fec82011ed6f09f5f626d,2011-02-17 02:55:35,34,2011-02-17 02:53:20,White-American,Single,I am not 21 years old yet,1
855f69267caba188c45901861dd0c639,2011-02-17 03:16:15,31,2011-02-17 03:14:34,Other Asians,Single,I am not 21 years old yet,1
465cbf2c85185eb11ee51dcd833ce4ac,2011-02-17 14:06:56,30,2011-02-17 14:05:43,Asian Chinese,Single,Yes,1
ec1bfe7179305a47d5b1a646f2f3ce08,2011-02-18 03:17:31,31,2011-02-18 03:15:43,White-American,Single,I am not 21 years old yet,1
7d21af3256ba9550d5aeb735c4f82093,2011-02-18 22:23:01,34,2011-02-18 22:20:01,White-other nationalities,Single,No; and not in frequent contact with non-resident father,1
ccff20335a4e4e0614c0b9734578d292,2011-02-19 11:42:04,33,2011-02-19 11:40:26,White-other nationalities,Single,Yes,1
a0829f754819fe1d7dc96fc3833a701c,2011-03-02 11:27:33,31,2011-02-19 14:18:08,African-American or African-European,Single,No; and not in frequent contact with non-resident father,1
60bb7f8e09c6afac6ddf111bd09c785b,2011-02-19 20:01:18,31,2011-02-19 19:59:03,Middle Eastern,Single,No; and not in frequent contact with non-resident father,1
7f32cebae2e681bce773258dceae0b3d,2011-02-19 22:05:11,31,2011-02-19 22:01:27,White-American,Married with child/children,Yes,1
a2682507eec6c98f59234f05efaea2c3,2011-02-20 02:38:15,32,2011-02-20 02:36:41,White-American,Single,Other,1
2796f1055dfb5369a63afbbaf424a34c,2011-02-20 02:59:06,35,2011-02-20 02:57:29,White-other nationalities,Single,I am not 21 years old yet,1
ed3a624866919c68e28343519850888c,2011-02-20 09:06:52,48,2011-02-20 09:06:03,White-British,Single,No; and not in frequent contact with non-resident father,1
7fff563829c6ccdc0a5cd5d34e1f86c9,2011-02-20 10:00:44,31,2011-02-20 09:35:45,Others,,I am not 21 years old yet,1
227a9c90da1ffc32b3dbeb80d534bbb0,2011-02-20 14:28:32,37,2011-02-20 14:27:00,White-other nationalities,Single,I am not 21 years old yet,1
a7d9818f6165cd5c84b8578185ccd616,2011-02-20 17:36:31,36,2011-02-20 17:33:49,White-British,Single,Other,1
54de19c35a7e3f964d782bde726439dc,2011-02-20 21:25:13,31,2011-02-20 21:23:48,White-American,Living with an unmarried partner,Yes,1
0b12516100c16f779b152858619786ff,2011-02-21 03:45:20,32,2011-02-21 03:43:56,White-American,Living with an unmarried partner,I am not 21 years old yet,1
e6cdef6f475cce3023c5b715f8c9f110,2011-02-21 05:33:44,30,2011-02-21 05:32:02,White-British,Single,I am not 21 years old yet,1
d9cd19ee657574347b67cb6aa65265b4,2011-02-21 05:48:15,38,2011-02-21 05:46:44,White-American,Single,Other,1
d388e10dfa9a665ac257cc083f71b6c0,2011-02-21 06:00:56,38,2011-02-21 05:59:38,White-British,Single,No; and not in frequent contact with non-resident father,1
bf2e586663eb82b5cd83bbdff4790262,2011-02-21 08:32:50,35,2011-02-21 08:31:42,Other Asians,Single,Yes,1
57073726980cb535c14932f6d9fa96fb,2011-02-21 09:11:11,34,2011-02-21 09:08:10,White-American,Single,I am not 21 years old yet,1
424be1b88f829b3362620e3c395525c7,2011-02-21 14:12:47,32,2011-02-21 14:10:01,Other Asians,Single,I am not 21 years old yet,1
d49a15f3dc196ce33b09979135718613,2011-02-21 16:53:59,35,2011-02-21 16:52:37,White-American,Single,Other,1
3fbf556f8713a05eb055caf548ee325c,2011-02-22 11:34:45,35,2011-02-22 11:33:34,Other Asians,Single,I am not 21 years old yet,1
c9fe42c8399927c29f1ad2f5ed1c6551,2011-02-22 15:50:20,33,2011-02-22 15:47:52,Others,Single,Other,1
700fe11d16cd8194a9c01e1696771bb0,2011-02-23 00:44:18,31,2011-02-23 00:42:58,White-American,Single,I am not 21 years old yet,1
0fa20f622770259c44e0214336285a98,2011-02-23 08:36:10,32,2011-02-23 08:34:00,Asian Chinese,Single,I am not 21 years old yet,1
ff8b0b281d18db4d425d41adce8a2c8c,2011-02-23 22:33:21,33,2011-02-23 22:30:51,White-American,Living with an unmarried partner,No; and not in frequent contact with non-resident father,1
b98b995372448f015357638c8eb6add1,2011-02-24 02:02:42,33,2011-02-24 02:00:30,Others,Single,No; but in frequent contact with non-resident father,1
608344463eea96ca2224516db525accc,2011-02-24 03:45:15,35,2011-02-24 03:43:48,White-American,Divorced,Yes,1
14b2dae4fdcf31c96aefd3f94f9c13c2,2011-02-24 03:52:13,34,2011-02-24 03:50:43,White-other nationalities,Married,Yes,1
12f02d52562fc96a32916a2f49cc1bb3,2011-02-24 05:27:13,36,2011-02-24 05:22:35,White-other nationalities,Single,Yes,1
6d1a8032c2598c4ed7112d3e30fb61fb,2011-02-24 06:43:52,30,2011-02-24 06:41:21,Other Asians,Married with child/children,Yes,1
5e49c1efdf782f392b89c4e6c6f1530e,2011-02-24 10:48:49,32,2011-02-24 10:47:33,White-American,Living with an unmarried partner,Yes,1
73a12793a3099e6b35488cf75f191642,2011-02-25 22:35:36,33,2011-02-25 22:33:16,White-American,Single,I am not 21 years old yet,1
914c0fc8a3e61ab17165c6af138dbf1e,2011-02-26 05:21:09,32,2011-02-26 05:18:48,Others,Single,I am not 21 years old yet,1
ea1e26d056c1f7fa4b52a4feb9ba37c6,2011-02-26 13:57:41,39,2011-02-26 13:56:12,Other Asians,Single,I am not 21 years old yet,1
802ee999690da0796de8f001fd30c658,2011-02-27 22:31:41,33,2011-02-27 22:29:29,White-American,Single,I am not 21 years old yet,1
7a4958e144f66200b5b831815bc836e8,2011-02-28 01:55:54,32,2011-02-28 01:49:11,African-American or African-European,Single,Yes,1
2995b3d4efc96af264eb2603c0209a99,2011-02-28 01:57:32,35,2011-02-28 01:55:56,White-American,Single,I am not 21 years old yet,1
fcdb7792a129cac80432c61e95ea7699,2011-02-28 05:55:13,32,2011-02-28 05:52:47,African-American or African-European,Single,Other,1
2b0817c63a8a58ad05f4bf88675f9fa2,2011-02-28 08:11:53,33,2011-02-28 08:10:40,White-American,Single,I am not 21 years old yet,1
b48211cb6afdb40bb3da4a71f7f8f0f0,2011-02-28 16:55:33,37,2011-02-28 16:54:24,White-American,Single,Yes,1
5a101c5f310d164214e527722d0df685,2011-02-28 18:22:22,35,2011-02-28 18:19:19,White-British,Living with an unmarried partner,No; but in frequent contact with non-resident father,1
56dad9e6bc5b111f733c20da58fc8083,2011-02-28 23:21:05,33,2011-02-28 23:17:18,White-other nationalities,Single,Other,1
183645c7ba4364a6af0e8b944b33eb06,2011-03-02 18:54:01,30,2011-03-02 18:52:42,White-British,Single,I am not 21 years old yet,1
e881315175871ca9acafb84c422c5a91,2011-03-03 04:58:17,33,2011-03-03 04:56:44,White-American,Single,No; and not in frequent contact with non-resident father,1
044f5651b920abc718440c0b19534fc3,2011-03-03 07:10:08,32,2011-03-03 07:05:57,,,,1
d77b48384a74d22c9f7239e51e09282e,2011-03-03 14:23:18,30,2011-03-03 14:21:42,White-British,Single,I am not 21 years old yet,1
19f41b6facd7a78c3ceef4fec559cda7,2011-03-04 07:14:21,33,2011-03-04 07:11:38,Native American,Living with an unmarried partner,No; and not in frequent contact with non-resident mother,1
7127a3528a9fbe068e772cf247e8c574,2011-03-04 12:31:33,35,2011-03-04 12:29:43,,,,1
11e5948169aa92b840500dfae17c70f6,2011-03-05 03:41:57,32,2011-03-05 03:39:51,White-other nationalities,Single,I am not 21 years old yet,1
7677a3ff1115438f2c90e9ef88ce8d4a,2011-03-05 03:56:00,31,2011-03-05 03:52:42,White-American,Living with an unmarried partner,Other,1
1789589a6d2bba0f09d768f8f3445be5,2011-03-05 04:23:26,33,2011-03-05 04:18:41,Others,,I am not 21 years old yet,1
376cc1797a7cbb41a33c392044fc2794,2011-03-05 04:46:14,36,2011-03-05 04:43:22,African-American or African-European,Single,I am not 21 years old yet,1
87d2d7a4004966e7ef5c48426e7ad621,2011-03-05 09:15:00,31,2011-03-05 09:13:25,Asian Chinese,Single,I am not 21 years old yet,1
fe4e8d6bc63f4d75771c0f0d9e7e152b,2011-03-06 00:31:04,32,2011-03-06 00:29:41,White-American,Single,Yes,1
f94ef75532e74a0a750e9345d02889ab,2011-03-06 06:17:26,39,2011-03-06 06:15:46,White-American,Single,I am not 21 years old yet,1
7959e48a5c9869a5eb172935f082daa4,2011-03-06 22:17:08,33,2011-03-06 22:12:15,Other Asians,Single,I am not 21 years old yet,1
2a1e77b348db53b838d5a7fab2548774,2011-03-07 03:37:29,30,2011-03-07 03:35:56,White-other nationalities,Single,I am not 21 years old yet,1
119aad69d66906e2b748bacd5e2e79ae,2011-03-07 04:24:49,34,2011-03-07 04:23:48,White-American,,I am not 21 years old yet,1
357fbfc2277b866d8a997ecab062cbc9,2011-03-07 21:26:58,33,2011-03-07 21:22:54,African-American or African-European,Single,Other,1
496a86771da1e30f0892e489cd2f7b36,2011-03-08 01:35:51,35,2011-03-08 01:34:03,White-other nationalities,Single,Yes,1
8efebbff1c7831780078e8d590daf08b,2011-03-08 03:01:03,42,2011-03-08 02:59:34,Other Asians,Single,I am not 21 years old yet,1
d55e07ed2d642946bb4c3ca17e115268,2011-03-08 23:42:47,34,2011-03-08 23:41:13,White-British,Single,No; but in frequent contact with non-resident mother,1
b87021e13a138ada11e2500c9c9d98ae,2011-03-08 23:58:56,32,2011-03-08 23:48:21,White-other nationalities,,No; but in frequent contact with non-resident mother,1
396460c978e345324e25b116356b6020,2011-03-09 00:43:30,41,2011-03-09 00:42:07,White-other nationalities,Single,I am not 21 years old yet,1
83b42f70e17daecbc41b785c2b9ce869,2011-03-09 02:42:26,31,2011-03-09 02:40:43,White-American,Single,I am not 21 years old yet,1
531e0056fe33e3768aa4a702f819dac9,2011-03-09 03:14:46,37,2011-03-09 03:10:35,White-American,Single,No; and not in frequent contact with non-resident father,1
e9970fe8848e9505b52d414d81611de8,2011-03-09 03:34:11,32,2011-03-09 03:32:59,White-American,Single,I am not 21 years old yet,1
8b80f395ebea5dbab387018dbcc8638d,2011-03-09 07:42:50,32,2011-03-09 07:37:15,Middle Eastern,Married,Yes,1
ff901930a5eaba2dc939d40571f51bb5,2011-03-09 16:14:00,33,2011-03-09 16:11:31,White-other nationalities,Single,I am not 21 years old yet,1
4691e62b992a7de095d57b0030f8535e,2011-03-09 16:44:10,30,2011-03-09 16:42:40,White-British,Single,I am not 21 years old yet,1
2a9b90b41e9399bb331fef2582f657c3,2011-03-10 05:41:58,31,2011-03-10 05:40:05,Other Asians,Single,I am not 21 years old yet,1
b2241d4fbe0b754b0e8559c85d5d26a7,2011-03-11 19:29:06,42,2011-03-11 19:21:50,Other Asians,Single,Yes,1
25c9e6830974dbeec5dc6229e28ab717,2011-03-11 21:46:09,30,2011-03-11 21:44:06,White-other nationalities,Single,No; and not in frequent contact with non-resident father,1
e2eac729bb852b7dc6694226af859acc,2011-03-11 21:50:09,36,2011-03-11 21:48:17,White-American,Single,I am not 21 years old yet,1
98bb32662c064af9a93a1be579fb7532,2011-03-12 03:47:15,31,2011-03-12 03:43:02,Others,Single,No; but in frequent contact with non-resident father,1
9851e23269d3494627589fc84cf4f7fa,2011-03-12 05:29:46,31,2011-03-12 05:27:34,White-other nationalities,Single,I am not 21 years old yet,1
a9f9bd991b0014f384bc1ea44515d9a8,2011-03-12 13:22:38,36,2011-03-12 13:20:15,Other Asians,Single,No; and not in frequent contact with non-resident father,1
db7f1b0130b2138e13b7bbca9cc63823,2011-03-12 14:11:47,30,2011-03-12 14:10:18,Asian Chinese,Single,I am not 21 years old yet,1
b6b0adf5be5d8127263f5cd82c5e1414,2011-03-12 14:55:40,37,2011-03-12 14:54:30,African-American or African-European,Single,No; and not in frequent contact with non-resident father,1
cf5a3f66c42918587a1428a6f7d7eec9,2011-03-13 23:12:04,33,2011-03-13 23:09:49,White-American,Divorced,Other,1
885bfa21524ffa461bf2e29b737ec146,2011-03-14 04:32:23,37,2011-03-14 04:30:45,Other Asians,Single,Yes,1
e3be456ec1669b09dbee516fb60ee0d2,2011-03-14 08:02:00,35,2011-03-14 07:59:17,,,I am not 21 years old yet,1
2c126f7226966d6b4e03c42f26ca7c14,2011-03-15 09:59:47,31,2011-03-15 09:58:20,Native American,Single,No; and not in frequent contact with non-resident father,1
c6065e52c61187ed0db62ccee2654c6b,2011-08-02 15:42:56,31,2011-08-02 15:41:23,White-American,Single,I am not 21 years old yet,1
6bfd37c25ce5f065b34924d28c088e91,2011-03-16 05:44:28,31,2011-03-16 05:42:55,Other Asians,Single,I am not 21 years old yet,1
cef02b911426facbb08a03e3af146a9c,2011-03-18 18:29:49,30,2011-03-18 18:28:12,White-American,Divorced,No; and not in frequent contact with non-resident father,1
b1d81edc5519d124b6b04f60a4873313,2011-03-18 22:30:37,31,2011-03-18 22:28:36,African-American or African-European,Single,Yes,1
a296a4247ba6f002856c365814cb3c18,2011-03-20 00:33:09,30,2011-03-20 00:31:38,White-American,Single,I am not 21 years old yet,1
40773224250799fc22cdcdf2a4d3cc82,2011-03-20 02:53:07,31,2011-03-20 02:51:06,African-American or African-European,Single,I am not 21 years old yet,1
4104c0b8700d519d1661c8a59b065363,2011-03-20 06:25:49,37,2011-03-20 06:24:30,White-British,Single,I am not 21 years old yet,1
4d121f5120ef7322545d7a6f80e62ade,2011-03-21 02:16:24,41,2011-03-21 02:14:56,Others,Single,I am not 21 years old yet,1
142635bd7f9ed8e4d8c292fa6ccd9aa4,2011-03-21 16:28:46,35,2011-03-21 16:27:06,White-American,Married with child/children,Yes,1
090dd511c63a028cbd1ae9f297619354,2011-03-22 07:52:01,33,2011-03-22 07:50:00,Asian Chinese,Single,I am not 21 years old yet,1
e2a4870012360da5fd48ad8962be3bd9,2011-03-22 13:17:37,30,2011-03-22 13:16:06,White-other nationalities,Living with an unmarried partner,Yes,1
247ba8e820c3d4e83efbada0318251f3,2011-11-25 23:33:08,36,2011-03-24 19:25:14,White-other nationalities,Living with an unmarried partner,No; and not in frequent contact with non-resident father,1
0e56291f2a2eb18fe5b7d90401e87d34,2011-03-25 23:44:28,38,2011-03-25 23:42:44,White-American,Single,I am not 21 years old yet,1
23b0e7534981382c9ac2672f5c6daba8,2011-03-25 23:53:38,30,2011-03-25 23:51:43,White-other nationalities,Single,I am not 21 years old yet,1
c14cc56b201f03cef21970f0a7fcb328,2011-03-26 03:38:20,30,2011-03-26 03:36:42,Others,Single,No; and not in frequent contact with non-resident mother,1
77ad12a1c7a2a2ef6c16f9b053b8b9bc,2011-03-26 23:48:53,33,2011-03-26 23:46:02,White-American,Single,I am not 21 years old yet,1
4d387d6752f49efa48afb2c3aba97263,2011-03-27 00:18:00,32,2011-03-27 00:16:23,Others,Married,Yes,1
23cbbe03a89344129e1a6d8419a66d23,2011-03-27 06:52:33,38,2011-03-27 06:51:05,White-American,Single,No; but in frequent contact with non-resident mother,1
53f9224b36d89dca99103a83f9df94b0,2011-03-28 08:38:30,39,2011-03-28 08:36:58,White-other nationalities,Living with an unmarried partner,I am not 21 years old yet,1
8ff6192bbbb717c36097b33e244d91de,2011-03-29 00:44:41,31,2011-03-29 00:41:06,White-American,Single,I am not 21 years old yet,1
af866a41657e88b4deda5e34198d7e39,2011-03-29 20:49:22,35,2011-03-29 20:47:10,White-British,Single,Yes,1
cd86d1e6d68c3770eaec0db419dceb2f,2011-03-29 22:31:10,38,2011-03-29 22:30:06,White-American,Single,No; but in frequent contact with non-resident father,1
a504bfd98bdc8e7a61edcfe8c4e2a801,2011-03-30 03:14:32,34,2011-03-30 03:10:04,,Single,No; and not in frequent contact with non-resident mother,1
67108ce32009962caa2c62b4530c0dbb,2011-03-30 15:48:30,38,2011-03-30 15:46:42,White-American,Living with an unmarried partner,I am not 21 years old yet,1
6f780cf2b8d1c05277640c28e0733464,2011-03-31 15:34:45,31,2011-03-31 15:33:29,White-American,Single,No; but in frequent contact with non-resident father,1
62c4578c9c40a8d42aee4e9d73b43447,2011-03-31 18:03:53,34,2011-03-31 18:01:53,Others,Single,I am not 21 years old yet,1
dc9d8b2d0083cf18e8e1d16afc4e5395,2011-04-01 00:19:50,46,2011-04-01 00:18:31,White-American,Married,Yes,1
f23fbfc03de736258e2054c548da3084,2011-04-01 02:14:12,33,2011-04-01 02:11:42,White-American,Single,I am not 21 years old yet,1
91607935d5929b663e3d935f6e73a9d8,2011-04-02 00:27:51,34,2011-04-02 00:26:01,White-American,Divorced,No; and not in frequent contact with non-resident father,1
5651e94ff56b2549066153a04fe38261,2011-04-02 10:25:33,31,2011-04-02 09:27:59,Middle Eastern,Single,No; and not in frequent contact with non-resident father,1
1b3cc0a2283ae955e9629f7244cca000,2011-04-02 14:46:20,45,2011-04-02 14:43:32,White-British,Single,Yes,1
1c1140acd4c8503822bdcc8250c7ed71,2011-04-02 22:35:20,34,2011-04-02 22:32:13,Other Asians,Single,I am not 21 years old yet,1
a53553e542184b217b96bfe7771698ae,2011-04-04 00:08:17,31,2011-04-04 00:07:16,White-American,Single,No; but in frequent contact with non-resident father,1
f3415e5425ed44581160dee354d3c278,2011-04-04 17:49:02,32,2011-04-04 17:47:08,White-American,Married with child/children,Other,1
246f769b5b2a8def141d5c8e3ce5ed5f,2011-04-04 22:49:38,32,2011-04-04 22:46:47,Middle Eastern,Single,Yes,1
63cfe619eb1a1ffb8f40a45571d6915c,2011-04-05 02:25:54,30,2011-04-05 02:23:44,White-British,Single,No; and not in frequent contact with non-resident father,1
77acd9dde76233b3ea2fd5e0ef142571,2011-04-05 03:57:07,30,2011-04-05 03:55:20,White-American,Divorced,Other,1
dc20f5b91f427d65c9fdbab6d45c8bc2,2011-04-06 00:43:14,30,2011-04-06 00:41:33,White-American,Single,I am not 21 years old yet,1
b0acac95493fc438ce56372eebde2b0e,2011-04-06 16:53:58,39,2011-04-06 16:44:07,White-other nationalities,Single,No; and not in frequent contact with non-resident father,1
3fc16d9aa62562b2b2552bb581889da1,2011-04-06 20:33:04,35,2011-04-06 20:30:03,White-other nationalities,Single,I am not 21 years old yet,1
e5d8e6ca83159cb03db2557d5d5b6192,2011-04-06 23:00:18,38,2011-04-06 22:59:19,White-other nationalities,Married with child/children,Other,1
4570be33e00ca1c1c8313ceaed82aa50,2011-04-08 14:25:14,32,2011-04-08 14:23:20,White-other nationalities,Single,I am not 21 years old yet,1
e2e91e96bbda5245213243ab7f70ddd8,2011-04-09 03:40:17,35,2011-04-09 03:39:15,African-American or African-European,Single,I am not 21 years old yet,1
59768c52ff000feb3a270c456c40333d,2011-04-09 21:23:11,30,2011-04-09 21:20:29,White-other nationalities,Married,Yes,1
15d3baad45df60861e9faaa1592b52f3,2011-04-10 02:34:12,39,2011-04-10 02:30:56,Other Asians,Living with an unmarried partner,Yes,1
995e4ebabf51c8603826114f233b66d5,2011-04-11 01:47:26,31,2011-04-11 01:45:29,Others,Single,Other,1
a6336ec5e11839ae33aee01fa2163652,2011-04-11 01:53:35,37,2011-04-11 01:52:31,White-American,Single,I am not 21 years old yet,1
4987f852de2479dffbc7fc1e75668388,2011-04-11 03:35:49,36,2011-04-11 03:32:38,White-British,Single,I am not 21 years old yet,1
36d598ce6ba72436b6757d7ef42b3ac6,2011-04-12 15:01:58,34,2011-04-12 15:00:49,White-British,Single,No; but in frequent contact with non-resident father,1
3ee3b705d076e609512dc2f93acbba02,2011-04-15 00:27:12,37,2011-04-15 00:24:17,White-American,Single,I am not 21 years old yet,1
f555812c118db1ecd99eec2072bbf08e,2011-04-16 01:05:12,31,2011-04-16 01:03:15,White-American,Single,Other,1
9f2b014b5e89aea39b7d1df065242a30,2011-04-16 04:51:56,38,2011-04-16 04:50:52,White-other nationalities,Single,No; and not in frequent contact with non-resident father,1
8604752e6154e3cb95ae7af5f9677309,2011-04-16 18:06:21,30,2011-04-16 18:04:01,White-other nationalities,Married with child/children,No; and not in frequent contact with non-resident father,1
1436ccb459cf7166b8e6926e9d2b6950,2011-04-17 06:30:42,30,2011-04-17 06:29:46,White-other nationalities,Single,Other,1
d290e316f86ce955ff64d4a221423821,2011-04-17 08:51:54,37,2011-04-17 08:48:41,Other Asians,Single,Other,1
b625b326f0cbe4a6be514b624d5fd4ea,2011-04-18 02:34:17,32,2011-04-18 02:32:13,Others,Single,I am not 21 years old yet,1
953149c4a7f539fed83161cee05ec6c0,2011-04-18 07:15:52,32,2011-04-18 07:13:48,White-American,Single,Yes,1
fb770f1bf2134b264f1ceafb541fc00c,2011-04-18 16:48:26,36,2011-04-18 16:47:29,White-American,Single,I am not 21 years old yet,1
12bca3ae16aabaa2ae2a33d54d0c1516,2011-04-19 01:38:23,35,2011-04-19 01:37:05,White-British,Single,Other,1
0de3fb81289774833b1a3ff7e5b86701,2011-04-19 03:27:37,31,2011-04-19 03:24:35,White-American,Single,Yes,1
b5efdb17945bc5ac2504e6c0c70f41b1,2011-04-19 04:09:32,31,2011-04-19 04:07:14,White-American,Single,I am not 21 years old yet,1
f5fb82dcec93d706b05d47ab7d12d390,2011-04-19 05:54:45,32,2011-04-19 05:52:32,White-American,Single,I am not 21 years old yet,1
e1cdac10d136e76e064e4860007d786d,2011-04-19 23:24:19,36,2011-04-19 23:22:23,Others,Single,Yes,1
23446b876041e8e15f976d7aa70cea13,2011-04-20 08:13:48,39,2011-04-20 08:06:01,White-other nationalities,Living with an unmarried partner,No; and not in frequent contact with non-resident father,1
59b5b8912d258bc58286a604d1e5e421,2011-04-20 08:22:23,31,2011-04-20 08:20:56,Other Asians,Single,Yes,1
5c3a9dd0b0250d7771adc343f7cdb8e1,2011-04-20 19:34:07,33,2011-04-20 19:29:21,Other Asians,Single,Yes,1
eaeabcfe25866f0455d349bae2450d88,2011-04-21 14:45:28,39,2011-04-21 14:44:24,White-British,Single,I am not 21 years old yet,1
a36b5610cdc120eda6507c40adc597c8,2011-04-21 15:00:55,36,2011-04-21 14:57:59,White-American,Divorced,,1
e23570d2dc6e6ac6adf320c91e0826df,2011-04-21 23:10:29,39,2011-04-21 23:06:30,White-other nationalities,Married,Yes,1
b0db80e36277fd34cbfd183711b3246d,2011-04-23 21:47:32,33,2011-04-23 21:46:19,White-British,Single,No; and not in frequent contact with non-resident father,1
2b03fed6689963629bed97bfd4d594cc,2011-04-25 04:11:52,33,2011-04-25 04:10:05,Other Asians,Single,Other,1
29cda473b52e1c75fbfe958ed3aec565,2011-04-25 05:19:03,31,2011-04-25 05:17:41,White-American,Married with child/children,No; but in frequent contact with non-resident father,1
07244b3fd4536a8eea069ab02057e220,2011-04-26 08:23:39,35,2011-04-26 08:21:57,White-other nationalities,Living with an unmarried partner,No; and not in frequent contact with non-resident father,1
28aab319df58927f3c37d565a42186b9,2011-04-26 15:00:33,34,2011-04-26 14:56:59,,,,1
effcd9794a9ec39620d60d4520066216,2011-04-26 21:57:36,33,2011-04-26 21:55:07,Others,Married with child/children,Other,1
3e971ea016ff2dd842475370b2d2dc0c,2011-04-28 04:41:09,33,2011-04-28 04:38:33,Other Asians,Single,Yes,1
caad2250871aacd68f5b405d44f80499,2011-04-28 05:12:40,37,2011-04-28 05:10:55,White-American,Single,No; and not in frequent contact with non-resident mother,1
2f8b2c45240876273121d77072b5c17b,2011-04-28 12:39:46,45,2011-04-28 12:38:05,Other Asians,Single,I am not 21 years old yet,1
7597e9a96889f6b21b784f1465cf81f6,2011-04-29 03:57:14,33,2011-04-29 03:55:38,Others,Living with an unmarried partner,Yes,1
47f5a07710791c42be7e23e5b99f5ef6,2011-04-30 09:31:31,35,2011-04-30 09:29:45,Other Asians,Single,Other,1
5d386dee1362ddfc49576ccda8a80e80,2011-05-01 02:24:23,38,2011-05-01 02:21:31,Native American,Single,I am not 21 years old yet,1
b5cdd94160c1ca8938dee8e4202e6455,2011-05-19 13:01:50,35,2011-05-19 13:00:52,White-American,Single,No; and not in frequent contact with non-resident father,1
011679a3ae49998801ada93d822b7302,2011-05-01 13:43:37,35,2011-05-01 13:42:09,White-American,Living with an unmarried partner,I am not 21 years old yet,1
ca745fc1747c3252bb6e5be40c5d91de,2011-05-02 19:40:39,30,2011-05-02 19:38:44,White-American,Single,No; but in frequent contact with non-resident father,1
94d9df4783ff58d5b196cb12afe1a630,2011-05-02 22:52:51,37,2011-05-02 22:51:55,White-other nationalities,Living with an unmarried partner,No; but in frequent contact with non-resident father,1
51ad38195cad45484da4149858e4f1b5,2011-05-03 22:43:14,34,2011-05-03 22:37:22,White-American,Living with an unmarried partner,I am not 21 years old yet,1
25c68399f38b70d0466ae022feb4fe6a,2011-05-04 18:29:13,41,2011-05-04 02:34:56,White-American,Living with an unmarried partner,No; and not in frequent contact with non-resident father,1
2af06a0d2c453ef4340280ae57348351,2011-05-04 06:12:44,35,2011-05-04 06:10:54,White-American,Single,Yes,1
c27f06a64c74ff8d8593da7861f81ec8,2011-05-06 08:21:55,37,2011-05-06 08:19:26,Asian Chinese,Divorced,Yes,1
ddb5453576c537bf4f97cff24102c170,2011-05-07 00:26:13,33,2011-05-07 00:25:14,White-other nationalities,Single,No; but in frequent contact with non-resident father,1
504db13d07c77ff545a29ea638a727af,2011-05-09 03:28:11,36,2011-05-09 03:26:49,White-American,Single,I am not 21 years old yet,1
223dbfbc2451d4ffaf244cc1e6c3abbb,2011-05-09 09:39:55,30,2011-05-09 09:38:04,Native American,Single,No; but in frequent contact with non-resident father,1
d42f4945517c45eb2ba65aad271b0fd9,2011-05-09 13:55:55,37,2011-05-09 13:54:28,Other Asians,Single,I am not 21 years old yet,1
2fba0f9dccc84f3516d8b553426af527,2011-05-10 06:50:54,31,2011-05-10 06:49:35,White-American,Single,Yes,1
b3c14e074e2aab8d6a163472791442f8,2011-05-11 16:25:28,35,2011-05-11 16:22:20,African-American or African-European,Single,Other,1
1c1a61d11a10f9fa967f250095792db3,2011-05-11 20:32:45,33,2011-05-11 20:30:11,White-British,Single,I am not 21 years old yet,1
0a7cad88b8fa4d2682b1c52376a81800,2011-05-15 05:09:33,31,2011-05-15 05:06:53,White-American,Married with child/children,Other,1
7a34c9c7e776fbf964d6da8a5c191557,2011-05-15 05:38:29,31,2011-05-15 05:36:17,Other Asians,Single,Yes,1
38a97fcd863468bd654d58e1d808c482,2011-05-16 02:23:19,38,2011-05-16 02:22:00,White-American,Single,I am not 21 years old yet,1
10fd2ca32d15994064627281da72f5bd,2011-05-16 04:52:18,37,2011-05-16 04:49:17,Other Asians,Single,Yes,1
4f187f7647635355feae204a7e3ab15c,2011-05-17 16:55:39,32,2011-05-17 16:54:12,,,,1
303ae1c4c034f9ab68985d9515cf1368,2011-05-18 21:05:39,32,2011-05-18 21:04:05,Other Asians,Single,I am not 21 years old yet,1
fab0db4fad0f9cbecde2c8e2206fa43c,2011-05-18 23:09:55,32,2011-05-18 23:06:25,,,,1
18f69ed40390b2987f8701f54960568a,2011-05-19 14:36:14,38,2011-05-19 14:33:18,White-British,Single,I am not 21 years old yet,1
905aa8f3783164bd023051c8a7f6c174,2011-05-19 17:00:24,35,2011-05-19 16:59:04,White-American,Single,No; and not in frequent contact with non-resident father,1
0e8f270a9b126c3839044391deb1d4e2,2011-05-19 19:32:10,39,2011-05-19 19:30:54,White-British,Single,No; but in frequent contact with non-resident father,1
308810c4d1a30a507600e80a17909e2c,2011-05-19 20:49:27,30,2011-05-19 20:47:14,White-American,Single,Yes,1
4da0add98e27cb8a922da3b910a6fc53,2011-05-20 02:55:48,31,2011-05-20 02:53:44,White-other nationalities,Divorced,Yes,1
93aad51db094fd86c49666ac8b5f026f,2011-05-21 05:30:20,33,2011-05-21 05:28:43,African-American or African-European,Single,I am not 21 years old yet,1
98bcd7e7d81d569867b11f4c99f61d78,2011-05-21 07:52:07,32,2011-05-21 07:49:47,Others,Living with an unmarried partner,Yes,1
26683bffa623a777c5c3a7836710f527,2011-05-22 15:00:07,32,2011-05-18 14:44:02,White-other nationalities,Single,I am not 21 years old yet,1
b24c0d1672d7e8429c014b4abceeebbc,2011-05-23 01:13:10,34,2011-05-23 01:11:55,White-American,Single,I am not 21 years old yet,1
0db30ddf6bde2bf4a88c377f0cd6047a,2011-05-23 08:15:53,39,2011-05-23 08:06:02,Others,Living with an unmarried partner,No; and not in frequent contact with non-resident father,1
d42cf9aee249a08bff892a1223b4df2e,2011-05-23 09:54:52,33,2011-05-23 09:51:40,White-American,Single,No; and not in frequent contact with non-resident father,1
ac99e20c5442b03f050d53cd3e70778b,2011-05-25 06:32:56,35,2011-05-25 06:31:20,Native American,Single,No; and not in frequent contact with non-resident father,1
4d5c4fd8a061482732fc1d2526839e25,2011-05-26 05:50:15,46,2011-05-26 05:48:19,White-other nationalities,Single,Other,1
6921d85c34477e86f5051932ebd6835b,2011-05-26 16:46:24,32,2011-05-26 16:41:36,Others,Single,Yes,1
87a4827e03a250458443caa5b961987a,2011-05-27 04:13:54,38,2011-05-27 04:12:22,White-British,Divorced,No; but in frequent contact with non-resident mother,1
cc206fdf7ed17d9862f9dd969ec659bc,2011-05-27 04:37:52,47,2011-05-27 04:35:03,Other Asians,Single,Yes,1
3fecb6e0f87a957db1188960cd56be41,2011-05-28 02:28:41,35,2011-05-28 02:26:42,Other Asians,Single,No; and not in frequent contact with non-resident father,1
d38a81dfbfbbd5f2a2a0a03e9db304c6,2011-05-28 13:41:10,34,2011-05-28 13:24:29,White-other nationalities,Single,Yes,1
6cfb7bd0f6704a58accdf47ca8636ab3,2011-05-28 17:52:50,36,2011-05-28 17:51:48,White-American,Single,I am not 21 years old yet,1
2eedcc9edd76d99e6943095e45fc02e9,2011-05-30 04:39:49,39,2011-05-30 04:37:41,White-American,Single,Other,1
65cfb9f7ecff45c9dae88b9339b16b1a,2011-05-30 09:18:17,36,2011-05-30 09:16:47,White-other nationalities,Living with an unmarried partner,I am not 21 years old yet,1
b76fa5fcca4d6ae77eeee584318f0c87,2011-05-31 10:37:40,33,2011-05-31 10:35:02,White-other nationalities,Single,Yes,1
f68268e212bc1ac0dff21524f6f73b3d,2011-06-01 04:45:21,32,2011-06-01 04:42:41,,,,1
594b8ba3b30a56cd703bbafe11041147,2011-06-02 16:38:06,37,2011-06-02 16:36:11,White-other nationalities,Single,I am not 21 years old yet,1
47fd47e0f55e599821bed164a56433f9,2011-06-02 20:33:24,30,2011-06-02 20:30:54,Other Asians,Single,Yes,1
a76902358958921abf1bfc07631a5f65,2011-06-03 19:28:18,36,2011-06-03 19:26:35,Other Asians,Single,Yes,1
1c1a87c25993e30ed27d821e61e51c67,2011-06-04 06:03:05,31,2011-06-04 06:01:11,White-American,Single,Yes,1
04be1d6fa64adb60a3d2847f4f905ec1,2011-06-07 02:32:59,36,2011-06-07 02:30:31,Other Asians,Single,I am not 21 years old yet,1
4fe7be93853af48034fb053a0d0a7747,2011-06-07 20:52:06,34,2011-06-07 20:48:41,White-British,Single,I am not 21 years old yet,1
7175a46eaf9d0a6e00c562bfaa614360,2011-06-09 18:11:10,32,2011-06-09 18:09:32,White-other nationalities,Single,No; and not in frequent contact with non-resident father,1
3a22ecf7125d120b6ca783020d86cb40,2011-06-09 21:32:35,35,2011-06-09 21:29:16,White-other nationalities,Married with child/children,No; and not in frequent contact with non-resident father,1
088bf0ed841bcc366475b3975eb1b9d2,2011-06-12 17:49:50,42,2011-06-12 17:47:22,White-American,Single,No; and not in frequent contact with non-resident father,1
191e5a77eb18bfc5026f35a3eb4539a1,2011-06-13 21:32:15,41,2011-06-13 21:30:00,White-American,Single,I am not 21 years old yet,1
0f0f2309e273495e1a909fab1c3859e6,2011-06-15 03:06:30,41,2011-06-15 03:05:32,Other Asians,Living with an unmarried partner,I am not 21 years old yet,1
a7a3af125074cb806a200f51ea7e10bf,2011-06-16 03:19:37,38,2011-06-16 03:16:36,White-other nationalities,Single,I am not 21 years old yet,1
052d07c87f511121889e653d7151e931,2011-06-18 06:47:16,38,2011-06-18 06:45:08,,Single,,1
d8ce5198df2ad16c79b34d49bb64098a,2011-06-19 08:50:49,42,2011-06-19 08:48:15,White-other nationalities,Single,No; and not in frequent contact with non-resident father,1
17938acf2d8d382eac91a3072bcae8b5,2011-06-20 23:11:13,34,2011-06-20 23:08:46,White-American,Living with an unmarried partner,I am not 21 years old yet,1
320c7c0997ad8fdfd0fdf6ee1832c64e,2011-06-21 03:55:03,40,2011-06-21 03:52:24,Others,Single,No; and not in frequent contact with non-resident father,1
9f9942d7da2fde6b17d683aa90164a38,2011-06-22 05:04:28,32,2011-06-22 05:03:16,Other Asians,Single,I am not 21 years old yet,1
06165dddbf8856657d57d27600c4944c,2011-06-22 11:39:02,39,2011-06-22 11:36:47,White-American,Single,Yes,1
3aac76fd5c5b0115f67dfcfe3850cf7c,2011-06-22 19:47:23,31,2011-06-22 19:35:06,White-other nationalities,Single,I am not 21 years old yet,1
4717ae67c4c469d13ab7d7fa53a4d632,2011-06-23 13:29:48,30,2011-06-23 13:27:31,White-American,Single,I am not 21 years old yet,1
03e6c4eca4269c183fa0e1780f73faba,2011-06-24 07:16:17,32,2011-06-24 07:14:10,White-other nationalities,Single,I am not 21 years old yet,1
f16fd48e4970abdf9df5fe67a4005386,2011-06-25 02:16:36,30,2011-06-25 02:14:27,White-American,Single,I am not 21 years old yet,1
f9eb7d32a6748f3d9e7ae378b956dd9b,2011-06-26 05:38:30,35,2011-06-26 05:29:12,African-American or African-European,Divorced,Other,1
dac62770e827c267c0c203da8e15de17,2011-06-27 01:21:35,36,2011-06-27 01:20:08,White-American,Living with an unmarried partner,No; and not in frequent contact with non-resident father,1
ec3dc451b8a811f05ace158a0d76e32e,2011-06-27 09:29:08,34,2011-06-27 09:26:28,White-American,Single,Yes,1
0765c56b2da0e50568488dbbbe93751b,2011-06-28 00:58:12,30,2011-06-28 00:52:20,White-American,Single,No; and not in frequent contact with non-resident father,1
0ab7efcd582b43d58c1fec65058efa72,2011-06-28 11:38:30,33,2011-06-28 11:35:26,White-American,Married with child/children,Yes,1
1b92f9f45ecf187571242e6183aed8b1,2011-06-28 20:47:19,30,2011-06-28 20:45:24,Other Asians,Single,I am not 21 years old yet,1
d0dcc7d37ccd7d5b9eee83ebfb0d491d,2011-06-30 01:29:41,30,2011-06-30 01:28:29,White-American,Single,Yes,1
b68be8e3d1a310f89765f2b1bd49e548,2011-07-02 23:04:29,34,2011-07-02 23:02:26,White-American,Living with an unmarried partner,No; and not in frequent contact with non-resident father,1
3a988007bdc183c6b3fb12da0e43d107,2011-07-03 05:55:34,30,2011-07-03 05:52:46,White-American,Single,No; and not in frequent contact with non-resident father,1
d65c9ff152c74fcdc74e3dcdd5cbabfa,2011-07-06 23:27:55,31,2011-07-06 23:25:44,Middle Eastern,Single,No; but in frequent contact with non-resident father,1
a36b4cef4e8f9a7baa73461c761d8753,2011-07-08 08:41:06,30,2011-07-08 08:39:43,White-American,Single,No; and not in frequent contact with non-resident father,1
27a92df10fe901b00d633e3e83c8c4de,2011-07-09 06:53:06,38,2011-07-09 06:50:31,White-American,Single,I am not 21 years old yet,1
61403c14fc11324a4d393cbde9f0f2e8,2011-07-10 01:58:16,30,2011-07-10 01:54:45,White-British,Single,No; and not in frequent contact with non-resident father,1
054e5fd22c26a92926a61c261c99054c,2011-07-11 01:44:03,31,2011-07-11 01:42:23,,,,1
5edc878620364f1c30717717aa5cd328,2011-07-11 06:36:11,40,2011-07-11 06:34:55,White-American,Single,Yes,1
61cde889b596924bc8eb8c8d5aa956a8,2011-07-11 17:31:02,37,2011-07-11 17:28:28,White-other nationalities,Single,Yes,1
6652af8f87f0f01af8ca2456c2e8a24d,2011-07-13 12:48:03,34,2011-07-13 12:46:51,White-American,Living with an unmarried partner,I am not 21 years old yet,1
0846a688fabc9c78c9bef2d0787ad5c8,2011-07-16 04:10:34,39,2011-07-16 04:08:34,Others,Single,I am not 21 years old yet,1
d7a7f477a7d4a75a9fc33d4326078d28,2011-07-21 05:22:36,34,2011-07-21 05:21:09,Others,Divorced,Other,1
35ae36fe4a9fd2b67410b47af739e877,2011-07-21 22:01:41,31,2011-07-21 21:59:58,White-American,Single,I am not 21 years old yet,1
ad30ce6078fd6ea54abca85610fba76f,2011-07-22 01:05:51,32,2011-07-22 01:04:17,Others,Single,I am not 21 years old yet,1
da15caa632bc137b9baa7e483b115fd5,2011-07-27 23:32:56,40,2011-07-27 23:30:47,White-American,Single,I am not 21 years old yet,1
397fcc0ac7160943334725fb38d499c6,2011-07-29 04:53:22,38,2011-07-29 04:50:57,Others,Single,I am not 21 years old yet,1
df8469e9137180f138c72b3c581f07b0,2011-07-30 18:15:56,32,2011-07-30 18:13:26,Other Asians,Single,Yes,1
16b50b14c2ba5cf9b3c3d66589011e0b,2011-07-31 03:52:11,30,2011-07-31 03:50:34,Other Asians,Single,I am not 21 years old yet,1
6d49ec5ec6219e517036db46376e6deb,2011-08-02 20:30:10,30,2011-08-02 20:28:13,White-American,Living with an unmarried partner,Other,1
4e05b41c8d1de538122d8553798c66fa,2011-08-10 02:17:24,34,2011-08-10 02:15:47,,,,1
01530624766b3be63c7709c6581c335d,2011-08-12 18:58:05,32,2011-08-12 18:56:03,White-American,Single,No; and not in frequent contact with non-resident father,1
79eb6e86ebfa142cda2c5e39a25ae26f,2011-08-14 05:40:18,30,2011-08-14 05:39:05,White-British,Single,I am not 21 years old yet,1
1827f641b3ba066d3b4bf4f920ee8ed1,2011-08-17 18:02:34,30,2011-08-17 18:00:26,Other Asians,Single,Yes,1
810e9b1b51be95b66789783641e2285a,2011-08-18 04:23:30,31,2011-08-18 04:20:43,White-other nationalities,Living with an unmarried partner,No; and not in frequent contact with non-resident father,1
d2703c13d8cb359b941c0174055ff7c7,2011-08-19 11:35:33,35,2011-08-19 11:32:49,White-American,Single,Yes,1
4b026d0d25fb64aeb2d3882edecbbfc2,2011-08-31 04:05:24,32,2011-08-31 04:03:41,White-other nationalities,Single,Yes,1
f97beeae7a13a4e10d891113d70680dd,2011-08-31 16:56:28,35,2011-08-31 16:53:04,Other Asians,,Yes,1
c2f408f2e2a726840b41ed2c6721673d,2011-09-01 15:53:49,34,2011-09-01 15:51:59,African-American or African-European,Living with an unmarried partner,No; but in frequent contact with non-resident father,1
8c393982479748c5a53acaa7a3717c71,2011-09-02 06:08:45,35,2011-09-02 06:07:20,White-American,Single,No; and not in frequent contact with non-resident mother,1
a122cc9043dd7a49cd7c327d45167524,2011-09-13 16:21:06,30,2011-09-04 15:51:11,White-American,Single,Other,1
fbc2e784739d0ced1e826120474ebe42,2011-09-04 16:15:38,33,2011-09-04 16:13:46,Other Asians,Single,Yes,1
88b3def9a32e31d4d880b62a1195dad2,2011-09-04 22:34:42,30,2011-09-04 22:33:14,,Single,Yes,1
3a991c0ceaa292165b56dbe939eff3ce,2011-09-05 19:32:49,30,2011-09-05 19:30:26,White-American,Single,No; but in frequent contact with non-resident father,1
802766e3b0c3d6aea9e0fe9359c6ae87,2011-09-07 00:26:51,30,2011-09-07 00:24:35,White-other nationalities,Single,Yes,1
9e17e6c19c1d34ef60a512e949f57381,2011-09-10 03:23:46,35,2011-09-10 03:19:51,White-American,Single,I am not 21 years old yet,1
682d8b0e89338b89a9bfeec286eee938,2011-09-10 07:27:55,32,2011-09-10 07:25:57,Asian Chinese,Single,No; but in frequent contact with non-resident mother,1
bac634ab2b65a3567c279fff0ef582db,2011-09-10 14:39:11,32,2011-09-10 14:37:23,Other Asians,Single,Yes,1
3dc3132b6872b268add6ce239282bc0f,2011-09-12 04:32:15,36,2011-09-12 04:30:39,Native American,Single,I am not 21 years old yet,1
6ab91086ffd7cb26084820e4682030bc,2011-09-15 17:47:41,37,2011-09-15 17:44:48,Other Asians,Single,No; but in frequent contact with non-resident father,1
4a39439a0bd75630a33bfad56846740a,2011-09-16 15:37:58,36,2011-09-16 15:36:27,White-American,Single,I am not 21 years old yet,1
f240c4711bb126e675c5243a218e8020,2011-09-19 02:56:13,31,2011-09-19 02:43:28,White-American,Single,I am not 21 years old yet,1
ff80904b7b68beac52c56a2225b0b956,2011-09-22 03:11:48,36,2011-09-22 03:10:15,,,,1
c59c73e2903106687ca2c2cdddb81e22,2011-09-24 01:07:45,31,2011-09-24 01:06:25,African-American or African-European,Single,No; and not in frequent contact with non-resident father,1
724a041b9477e6da58dcba0abf3e1b83,2011-09-29 03:48:48,30,2011-09-29 03:45:39,White-American,Married with child/children,No; and not in frequent contact with non-resident father,1
650dcfe7b3db65d0e8589d5bc27925ff,2011-09-30 13:41:58,33,2011-09-30 13:39:24,White-American,Single,No; and not in frequent contact with non-resident father,1
2fbefca6448d373830ba762edb69cf09,2011-10-02 18:58:07,31,2011-10-02 18:56:27,,,,1
6328f0fb3d9e4d1277446663f93482cc,2011-10-05 08:03:46,36,2011-10-05 08:02:36,Others,Living with an unmarried partner,I am not 21 years old yet,1
9ce5a8605ef2f72e3622896533b10b9d,2011-10-07 19:45:59,34,2011-10-07 19:42:45,Other Asians,Single,Yes,1
b27052d72d8d2d7c5d381878130b5481,2011-10-09 17:21:33,40,2011-10-09 17:18:28,White-American,Married with child/children,Yes,1
40575a04c3175db495a4d89b6860d809,2011-10-25 05:38:56,30,2011-10-25 05:36:14,White-American,Single,I am not 21 years old yet,1
ffa81918faec5c16160c545c8fb60b3f,2011-10-25 23:31:39,39,2011-10-25 23:29:26,Other Asians,Single,I am not 21 years old yet,1
7b0d825445ac43275ba4f8ce14e1ed5c,2011-10-26 15:40:03,45,2011-10-26 15:38:42,White-American,Single,Other,1
244e39be30fc5869645e818b5c740ea5,2011-11-09 20:53:36,32,2011-11-09 20:51:03,White-other nationalities,Single,No; and not in frequent contact with non-resident father,1
0c2d58ad70e9bf384a0bf4026f7aac73,2011-11-14 20:29:01,31,2011-11-14 20:27:20,White-American,Living with an unmarried partner,No; and not in frequent contact with non-resident father,1
dc2547032e742daf6498d817d467baad,2011-11-26 06:44:29,43,2011-11-26 06:42:05,White-American,Single,No; and not in frequent contact with non-resident mother,1
b4df192aa68519bad438920735e802c0,2011-12-14 08:52:05,35,2011-12-14 08:50:45,White-American,Single,I am not 21 years old yet,1
f9ae3733bae2a3cbe35bd756ccce4d91,2011-12-17 17:08:58,42,2011-12-17 17:06:14,White-American,Divorced,No; and not in frequent contact with non-resident father,1
5e34486308dfa39c91780a440632f724,2011-12-21 01:10:14,34,2011-12-21 01:08:12,,,,1
f1b9957ad9d63642c7b04fb8a30aaf9a,2011-12-23 03:39:06,30,2011-12-23 03:37:34,White-American,Single,Yes,1
21d43a97ca7f51677302135d657bddf7,2011-12-26 06:35:09,36,2011-12-26 06:32:06,White-American,Married with child/children,Yes,1
7710e2148fd05e5ca145db66dcc010fa,2012-01-03 08:09:56,44,2012-01-03 08:07:28,White-American,Single,I am not 21 years old yet,1
79f33b896538f4548d334ef5a4f208ce,2012-01-05 01:31:54,35,2012-01-05 01:29:35,White-American,Single,I am not 21 years old yet,1
5757a0be6a9fba552680eb1106df3673,2012-01-05 02:20:38,33,2012-01-05 02:19:20,African-American or African-European,Single,I am not 21 years old yet,1
48de9dbe98d2d1faee6128b9cdbce903,2012-01-23 18:50:26,36,2012-01-23 18:48:02,White-other nationalities,Single,No; and not in frequent contact with non-resident father,1
5b73fda4dc899e8b97fa3d72f2dd7ae5,2012-01-23 23:45:21,33,2012-01-23 23:43:03,Others,Living with an unmarried partner,Yes,1
439f3d6687e9826c9f511eb794b7f17a,2012-01-28 13:40:15,35,2012-01-28 13:38:39,Other Asians,Single,I am not 21 years old yet,1
3a946142244dec06c80278c2a38a852c,2012-01-30 21:45:54,48,2012-01-30 21:44:28,White-British,Single,No; but in frequent contact with non-resident father,1
e5ce554613d0de0977d80c36632ec129,2012-02-03 21:02:35,30,2012-02-03 20:54:18,White-British,Single,I am not 21 years old yet,1
f67dc900ac399fc2ed65294faa591a86,2012-02-13 00:32:31,35,2012-02-13 00:30:44,White-other nationalities,Living with an unmarried partner,Yes,1
845393074d907aa766c088442a2f1308,2012-02-23 15:29:18,33,2012-02-23 15:27:09,White-American,Married with child/children,No; and not in frequent contact with non-resident father,1
0ebb769245380c239029b2cb2b6e6b1e,2012-02-24 19:14:15,36,2012-02-24 19:12:02,Other Asians,Single,I am not 21 years old yet,1
ca6379ae4ac1d0fae82f2b9293b2eceb,2012-03-07 04:25:41,32,2012-03-07 04:20:59,Others,Living with an unmarried partner,I am not 21 years old yet,1
c7c082445415ffdb67e9de08f259e8e5,2012-03-08 22:52:53,33,2012-03-08 22:51:37,Others,Married with child/children,Yes,1
b77848f3cbf4a8a87d33d95aa41abe48,2012-03-16 11:04:46,34,2012-03-16 11:03:10,Other Asians,Single,Yes,1
5e58e13a371c45b44efcf60a630a992c,2012-03-18 23:06:45,30,2012-03-18 23:05:22,White-British,Living with an unmarried partner,I am not 21 years old yet,1
661d7017ad6e5a5d09a8841917fea5bf,2012-03-28 10:36:41,38,2012-03-28 10:33:39,Other Asians,Single,Yes,1
19086fa4d04d7203f0b7702f0a76de45,2012-05-06 16:36:39,34,2012-05-06 16:33:58,Others,Single,Yes,1
98500a6228747f60e2230f46d7d61c12,2012-05-23 05:02:51,30,2012-05-23 05:00:55,White-American,Single,No; but in frequent contact with non-resident father,1
772b14ee8620c09f94102a9286c882f1,2012-06-03 00:04:17,41,2012-06-03 00:02:47,African-American or African-European,Single,No; and not in frequent contact with non-resident father,1
ec8f396f6abe7aca58bfa8a43d6f5a7a,2012-06-20 20:16:43,31,2012-06-20 20:15:16,,,,1
cdc1f4fe532c2a2443bc2f5ea3dc7d0a,2012-07-02 01:35:15,33,2012-07-02 01:33:09,White-other nationalities,Single,I am not 21 years old yet,1
