userid,CES.D_score,completion_time,ethnicity,marital_status,parents_together,q1,q2,q3,q4,q5,q6,q7,q8,q9,q10,q11,q12,q13,q14,q15,q16,q17,q18,q19,q20,depressed
b57dcbe1b484eb302cb9da59bf83f6a2,34,0,,,,2,3,1,0,3,2,3,1,3,1,1,1,1,2,1,1,1,2,2,3,1
beeb68b947eaec4a55a9d8d20a7c5b52,33,3,,,,1,2,2,1,1,1,1,1,2,3,2,3,2,3,0,2,2,1,1,2,1
0d4a51e22f36151b2e435ce3fd4eb6f9,31,1,White-American,Single,I am not 21 years old yet,3,2,3,3,0,2,1,3,1,1,1,3,1,1,0,3,0,3,0,0,1
a79d99cb1fe61ceea2737bb7fa6f9c53,30,0,White-British,Single,Yes,3,2,3,0,2,0,3,2,2,0,0,3,2,0,0,0,2,0,3,3,1
04a3601e8b319f740167723a58c488e7,30,1,White-American,Married,Yes,0,1,2,2,2,1,0,2,2,2,3,2,1,3,0,2,0,3,2,0,1
fc1c9fb6c64740edcbbf8cfe9dde8b02,31,0,African-American or African-European,Single,I am not 21 years old yet,1,0,1,3,3,1,2,2,0,3,2,3,1,0,2,2,2,0,1,2,1
ab3b4c66fe29289ad91c38b572215748,32,4,Other Asians,Single,I am not 21 years old yet,1,2,3,3,1,2,2,2,3,1,2,0,1,1,0,2,2,1,2,1,1
c1232df26ceef005d42e6b9fc2434159,31,2,White-British,Living with an unmarried partner,Yes,0,2,0,0,2,3,0,3,1,3,2,0,1,3,1,0,2,2,3,3,1
0ed835b3175cb77d3c9cb48c1528e29c,30,0,White-American,Single,No; and not in frequent contact with non-resident father,2,3,3,1,1,1,1,1,2,2,2,1,1,2,1,0,1,2,1,2,1
52bdd62b7694995847e70a1f25f03ef9,38,2,Middle Eastern,Single,Yes,0,3,3,2,2,3,2,3,0,1,3,1,1,2,0,2,3,1,3,3,1
077243dfd4750094bde7eb01e5cfcb42,32,1,Others,Single,Yes,2,2,0,0,0,1,0,1,1,3,1,0,3,3,3,2,1,3,3,3,1
9d73ecd9cf815d8bc340cd1bb8e94cfb,48,0,White-other nationalities,Single,I am not 21 years old yet,3,3,3,0,3,3,3,3,3,3,3,3,3,3,0,0,3,3,3,0,1
216924ec52555944d3d64c52390b359f,40,3,,,,0,2,1,1,-2,3,1,2,1,1,0,1,3,0,0,0,1,1,1,2,1
6e2b38abfd32d966c121cb065b19507d,35,1,White-American,Single,No; and not in frequent contact with non-resident father,2,1,1,0,3,2,3,2,1,2,1,3,1,3,3,0,1,2,2,2,1
9baa0c47f086e39dcf830ed18b653ae3,35,0,Asian Chinese,Married,Yes,2,2,2,1,2,2,2,2,1,2,2,2,1,3,2,2,2,1,2,0,1
6b899312e494ce93b8a63ee5f3c138d5,33,2,White-American,Living with an unmarried partner,No; but in frequent contact with non-resident father,2,2,1,2,0,1,3,2,2,1,1,1,2,1,2,3,1,2,1,3,1
fdd7bb23407b15e190e70405063db57b,39,4,African-American or African-European,Single,I am not 21 years old yet,3,3,1,3,0,1,1,2,3,1,2,2,3,3,1,0,3,2,2,3,1
27f1cc2f566b95164881ec4553a71b65,30,1,White-American,Single,No; and not in frequent contact with non-resident father,1,2,3,2,2,1,2,1,0,1,1,2,2,1,2,2,2,0,1,2,1
673624376cb47f14958e55c55d15f85c,37,3,White-American,Divorced,Yes,3,3,0,2,3,3,3,1,3,3,3,0,2,2,2,1,0,0,0,3,1
601f343a14622332a92b593a459de56c,32,3,White-American,Married,Yes,0,3,0,0,3,3,0,3,3,1,2,2,3,3,2,0,1,1,0,2,1
b840c49223849e699af8fd0ffb0ff8b3,30,1,Other Asians,Single,Yes,1,2,3,2,1,2,2,1,0,1,1,2,0,2,3,2,1,2,1,1,1
30bf80c90e3fe56b9a50493a7f27b012,36,2,White-American,Single,I am not 21 years old yet,2,2,2,1,0,3,2,0,2,2,1,3,2,3,2,1,2,2,2,2,1
f3a86bbb3ca55c26f97074307e44d5f3,32,3,White-other nationalities,Divorced,No; and not in frequent contact with non-resident mother,0,3,1,2,3,1,2,2,1,3,1,2,3,2,3,0,2,0,1,0,1
cbc0e7679349c25766cfaca3a764f333,31,2,White-British,Living with an unmarried partner,No; and not in frequent contact with non-resident father,2,0,1,3,1,1,2,0,0,3,2,3,1,1,2,2,1,2,2,2,1
a428a1c5a00dae701742303ce9dcdf44,30,2,Others,Single,No; and not in frequent contact with non-resident father,3,0,0,0,1,1,0,0,2,3,3,1,3,0,3,1,3,0,3,3,1
64a0f6ca7fadb3a6e3f823dcea00ae27,30,0,White-American,Single,I am not 21 years old yet,2,0,0,0,2,3,3,0,2,3,3,0,3,1,3,3,0,1,0,1,1
6262f9ea246e00408561aa9a73c49175,37,0,White-American,Single,Other,2,2,2,2,1,2,1,2,3,2,2,1,1,3,2,2,2,3,1,1,1
ccd134a9a901e5562f3dff0f69305eba,30,4,African-American or African-European,Single,Yes,1,1,0,3,2,1,2,2,2,1,3,3,0,0,0,3,0,3,2,1,1
1a32585eabfae9612f70513dedbf9e27,33,1,White-other nationalities,Single,I am not 21 years old yet,1,2,0,1,3,2,0,0,2,3,1,3,2,0,2,2,3,1,3,2,1
8375086415bc4b649cfab71cf0768fd7,31,4,Other Asians,Single,I am not 21 years old yet,1,1,1,2,2,0,2,1,1,3,3,1,1,2,2,2,1,0,3,2,1
6bbc96794b1de1d531ad1168dd4da8a8,35,4,White-American,Single,I am not 21 years old yet,2,3,0,2,3,2,2,0,1,2,2,2,2,3,1,1,3,2,1,1,1
700ebf7d47c77ab999b158cec6d4f81d,31,1,White-American,Single,I am not 21 years old yet,2,2,0,2,1,1,2,2,2,1,2,0,1,2,3,3,2,1,0,2,1
65aa5b04d73c3d4fb823ba3c2d348293,32,4,Native American,Single,I am not 21 years old yet,3,2,3,0,1,2,1,1,3,2,0,0,1,2,3,3,2,0,2,1,1
74013e82812ab01a19624acd2eb5e7a6,32,3,White-American,Married,Yes,2,1,1,2,1,0,3,3,1,3,0,3,3,3,1,0,0,1,1,3,1
87a718e44be93a580cac8a40716a1c84,30,1,Other Asians,Single,I am not 21 years old yet,0,2,2,3,1,0,1,1,1,2,3,3,0,0,1,3,1,2,1,3,1
7b0d84345f034857f3c9cd793ee551ed,31,0,White-American,Divorced,Yes,1,1,3,3,2,3,1,2,1,1,2,0,3,2,2,0,1,0,2,1,1
03b6072a243347cf634eee1018be408d,40,0,White-American,Living with an unmarried partner,No; and not in frequent contact with non-resident father,1,3,1,3,1,3,3,0,3,2,3,2,0,2,2,1,1,3,3,3,1
4ed3b4bb6d3a730f193ff1337afc7741,35,4,Other Asians,Single,Yes,3,3,0,0,0,1,2,0,3,3,1,1,0,3,3,3,3,2,3,1,1
9504dafaba40702cd047f94871b6af59,38,2,African-American or African-European,Single,Other,2,3,1,3,3,3,0,0,3,3,1,1,1,1,3,1,2,2,2,3,1
bc619f7cbbdb1806e386554e4b33a439,38,0,Other Asians,Single,No; but in frequent contact with non-resident father,3,2,3,3,0,0,3,3,2,3,2,3,0,0,1,3,1,3,3,0,1
18c9b1bf258e266665b43e49cdae4dc5,38,1,Others,Single,Yes,2,2,2,2,1,0,1,3,1,3,3,2,3,1,3,3,1,3,2,0,1
9963eb029cd100ade5c37f057b7b13e9,37,3,White-American,Living with an unmarried partner,No; and not in frequent contact with non-resident father,3,2,2,2,2,3,1,1,1,2,3,0,3,1,3,1,1,3,2,1,1
0e1b88bcb9f1595af5857e03d719fca4,30,4,Others,Single,No; and not in frequent contact with non-resident father,1,1,1,1,3,1,0,2,1,3,1,2,0,3,1,1,2,2,1,3,1
bd7540dfcd6fe065f0f2543422e63b77,35,3,Other Asians,Single,Yes,3,1,1,0,3,2,1,2,2,2,3,0,1,2,1,3,3,2,2,1,1
eadb4d696eccf49f6e168e3610144d4c,30,0,White-American,,I am not 21 years old yet,0,1,0,3,0,1,2,2,2,2,2,3,1,2,2,1,0,1,3,2,1
338b6ea88faa458f7ec0d542a577ee3b,30,1,White-other nationalities,Single,Other,1,3,0,1,1,1,2,3,2,3,1,0,1,2,2,1,2,1,2,1,1
fbd681e79ebca2cd9509218403f23ec6,31,4,Asian Chinese,Single,I am not 21 years old yet,1,1,0,1,3,1,1,2,2,2,1,1,3,3,2,0,3,1,3,0,1
e61578d65e84826473ff9d74fa56456f,34,3,Middle Eastern,Single,Yes,2,0,0,2,2,2,2,2,3,0,1,0,1,3,3,3,2,2,3,1,1
c4987aa846a4935c2d07c14c11d79b2d,34,1,White-American,Married with child/children,Yes,0,3,3,2,2,2,2,2,3,3,0,1,2,1,3,1,0,1,2,1,1
c3dcf614104a24210bfac607cd63a9f2,30,3,Others,Single,Yes,3,2,1,2,3,3,0,2,2,0,0,0,2,0,3,1,1,3,2,0,1
d20ad22d61822231f4d3c005942351b1,37,1,White-American,Single,Other,1,3,3,1,2,1,3,0,3,3,2,0,2,3,1,2,1,1,3,2,1
6771a33cac9e781d6aaffdbbd7f30cb1,34,0,White-American,Single,I am not 21 years old yet,3,3,1,2,2,2,1,1,1,1,1,3,2,2,2,1,2,1,2,1,1
3cc0db55763257a91f1947ed77d8aac5,33,1,White-American,Single,Yes,1,1,2,3,0,2,2,3,1,1,2,3,2,0,3,2,0,2,2,1,1
311b0b87ac6fec82011ed6f09f5f626d,34,2,White-American,Single,I am not 21 years old yet,0,3,0,3,3,3,0,0,0,3,3,0,2,0,3,0,3,3,3,2,1
855f69267caba188c45901861dd0c639,31,1,Other Asians,Single,I am not 21 years old yet,1,2,3,3,2,0,1,1,1,0,2,2,3,3,1,2,3,0,1,0,1
465cbf2c85185eb11ee51dcd833ce4ac,30,0,Asian Chinese,Single,Yes,1,2,1,2,0,1,2,3,0,2,1,3,1,1,2,3,1,1,1,2,1
ec1bfe7179305a47d5b1a646f2f3ce08,31,1,White-American,Single,I am not 21 years old yet,1,0,3,3,0,3,0,2,1,0,0,3,0,0,3,3,3,0,3,3,1
7d21af3256ba9550d5aeb735c4f82093,34,3,White-other nationalities,Single,No; and not in frequent contact with non-resident father,0,1,0,2,2,1,2,1,3,3,3,1,3,1,1,2,2,1,3,2,1
ccff20335a4e4e0614c0b9734578d292,33,1,White-other nationalities,Single,Yes,1,2,0,3,2,1,2,2,2,1,2,3,0,2,1,2,3,2,1,1,1
a0829f754819fe1d7dc96fc3833a701c,31,4,African-American or African-European,Single,No; and not in frequent contact with non-resident father,1,1,1,1,-2,2,1,2,1,3,1,2,3,0,1,3,1,1,2,0,1
60bb7f8e09c6afac6ddf111bd09c785b,31,2,Middle Eastern,Single,No; and not in frequent contact with non-resident father,1,2,0,3,0,1,1,3,0,2,1,3,3,2,1,2,2,1,0,3,1
7f32cebae2e681bce773258dceae0b3d,31,3,White-American,Married with child/children,Yes,2,2,2,2,0,0,1,1,3,3,3,0,1,2,2,1,2,1,2,1,1
a2682507eec6c98f59234f05efaea2c3,32,1,White-American,Single,Other,2,2,1,0,2,2,1,2,2,1,2,2,2,1,1,1,2,1,3,2,1
2796f1055dfb5369a63afbbaf424a34c,35,1,White-other nationalities,Single,I am not 21 years old yet,2,2,2,0,0,1,3,1,1,0,0,1,3,2,3,3,3,3,3,2,1
ed3a624866919c68e28343519850888c,48,0,White-British,Single,No; and not in frequent contact with non-resident father,3,0,3,3,3,3,3,3,3,3,3,0,3,3,3,0,3,3,3,0,1
7fff563829c6ccdc0a5cd5d34e1f86c9,31,4,Others,,I am not 21 years old yet,3,2,2,0,0,1,3,1,1,2,0,0,3,2,1,2,2,1,3,2,1
227a9c90da1ffc32b3dbeb80d534bbb0,37,0,White-other nationalities,Single,I am not 21 years old yet,2,2,3,2,3,1,2,0,3,1,1,0,3,3,0,0,3,2,3,3,1
a7d9818f6165cd5c84b8578185ccd616,36,2,White-British,Single,Other,1,3,3,0,3,2,3,0,0,2,0,0,1,0,3,3,3,3,3,3,1
54de19c35a7e3f964d782bde726439dc,31,0,White-American,Living with an unmarried partner,Yes,1,3,0,3,0,3,3,1,1,2,0,1,3,1,2,0,1,3,2,1,1
0b12516100c16f779b152858619786ff,32,0,White-American,Living with an unmarried partner,I am not 21 years old yet,3,1,1,2,2,1,2,2,2,1,1,1,1,1,3,1,1,2,2,2,1
e6cdef6f475cce3023c5b715f8c9f110,30,1,White-British,Single,I am not 21 years old yet,2,0,3,2,2,0,1,3,2,1,2,2,1,2,0,1,0,2,2,2,1
d9cd19ee657574347b67cb6aa65265b4,38,0,White-American,Single,Other,2,2,3,0,3,3,3,0,3,1,3,0,3,2,0,2,2,3,3,0,1
d388e10dfa9a665ac257cc083f71b6c0,38,0,White-British,Single,No; and not in frequent contact with non-resident father,3,0,3,0,3,0,3,0,3,2,1,0,3,3,2,0,3,3,3,3,1
bf2e586663eb82b5cd83bbdff4790262,35,0,Other Asians,Single,Yes,0,3,3,2,1,2,1,0,1,1,1,2,3,2,3,2,3,2,2,1,1
57073726980cb535c14932f6d9fa96fb,34,3,White-American,Single,I am not 21 years old yet,3,1,0,3,2,2,2,1,3,1,3,1,1,1,3,3,2,0,2,0,1
424be1b88f829b3362620e3c395525c7,32,3,Other Asians,Single,I am not 21 years old yet,2,2,1,2,2,3,1,2,3,3,2,1,3,2,0,1,1,0,1,0,1
d49a15f3dc196ce33b09979135718613,35,0,White-American,Single,Other,3,3,0,3,3,3,3,1,0,0,3,2,1,0,0,0,3,3,1,3,1
3fbf556f8713a05eb055caf548ee325c,35,0,Other Asians,Single,I am not 21 years old yet,3,0,2,0,2,0,3,1,3,3,3,1,0,3,3,3,2,3,0,0,1
c9fe42c8399927c29f1ad2f5ed1c6551,33,2,Others,Single,Other,2,0,2,2,2,2,2,2,1,0,1,2,2,2,2,3,0,0,3,3,1
700fe11d16cd8194a9c01e1696771bb0,31,0,White-American,Single,I am not 21 years old yet,2,1,3,3,0,0,3,3,3,0,2,3,1,3,0,3,0,0,0,1,1
0fa20f622770259c44e0214336285a98,32,2,Asian Chinese,Single,I am not 21 years old yet,3,2,1,1,0,2,2,2,3,2,1,3,0,1,2,1,0,2,1,3,1
ff8b0b281d18db4d425d41adce8a2c8c,33,2,White-American,Living with an unmarried partner,No; and not in frequent contact with non-resident father,1,2,2,3,2,2,2,2,1,1,2,1,2,1,2,1,2,0,2,2,1
b98b995372448f015357638c8eb6add1,33,2,Others,Single,No; but in frequent contact with non-resident father,2,1,2,2,2,2,1,1,0,2,1,0,1,0,3,3,3,2,3,2,1
608344463eea96ca2224516db525accc,35,0,White-American,Divorced,Yes,2,2,3,2,1,1,1,2,2,2,3,1,2,2,0,2,2,0,2,3,1
14b2dae4fdcf31c96aefd3f94f9c13c2,34,0,White-other nationalities,Married,Yes,0,3,3,1,2,3,1,1,1,3,3,0,2,0,1,1,1,3,3,2,1
12f02d52562fc96a32916a2f49cc1bb3,36,4,White-other nationalities,Single,Yes,1,0,0,0,0,3,0,3,3,3,3,3,3,0,2,3,2,2,3,2,1
6d1a8032c2598c4ed7112d3e30fb61fb,30,2,Other Asians,Married with child/children,Yes,2,2,1,0,0,2,2,2,1,2,3,2,2,1,0,1,2,2,2,1,1
5e49c1efdf782f392b89c4e6c6f1530e,32,0,White-American,Living with an unmarried partner,Yes,1,1,1,2,3,2,3,2,2,1,1,2,2,1,2,2,1,1,2,0,1
73a12793a3099e6b35488cf75f191642,33,2,White-American,Single,I am not 21 years old yet,3,2,3,2,1,1,2,3,0,0,1,2,2,2,1,2,0,2,2,2,1
914c0fc8a3e61ab17165c6af138dbf1e,32,2,Others,Single,I am not 21 years old yet,0,3,1,3,2,0,1,3,0,2,1,3,3,0,2,3,2,2,1,0,1
ea1e26d056c1f7fa4b52a4feb9ba37c6,39,0,Other Asians,Single,I am not 21 years old yet,0,3,3,0,3,2,3,0,3,3,3,0,3,0,2,0,3,3,2,3,1
802ee999690da0796de8f001fd30c658,33,2,White-American,Single,I am not 21 years old yet,1,2,2,0,2,1,3,2,3,3,1,1,0,1,2,2,2,1,1,3,1
7a4958e144f66200b5b831815bc836e8,32,4,African-American or African-European,Single,Yes,2,1,1,3,2,1,3,0,3,3,1,2,2,0,0,1,1,2,2,2,1
2995b3d4efc96af264eb2603c0209a99,35,1,White-American,Single,I am not 21 years old yet,2,2,2,1,2,1,2,1,1,1,2,3,2,1,2,1,2,1,3,3,1
fcdb7792a129cac80432c61e95ea7699,32,2,African-American or African-European,Single,Other,1,0,1,3,3,0,0,2,3,1,2,3,0,1,3,3,1,2,2,1,1
2b0817c63a8a58ad05f4bf88675f9fa2,33,0,White-American,Single,I am not 21 years old yet,2,1,1,2,0,2,1,3,2,1,3,0,0,3,3,1,3,3,0,2,1
b48211cb6afdb40bb3da4a71f7f8f0f0,37,0,White-American,Single,Yes,1,1,1,3,2,1,2,3,2,1,2,3,3,3,1,1,3,0,1,3,1
5a101c5f310d164214e527722d0df685,35,3,White-British,Living with an unmarried partner,No; but in frequent contact with non-resident father,1,1,3,1,3,3,3,3,2,3,2,0,1,0,1,1,1,1,2,3,1
56dad9e6bc5b111f733c20da58fc8083,33,3,White-other nationalities,Single,Other,3,0,0,3,3,3,1,3,0,1,0,2,1,1,2,3,0,1,3,3,1
183645c7ba4364a6af0e8b944b33eb06,30,0,White-British,Single,I am not 21 years old yet,1,0,1,3,2,0,0,0,0,2,3,0,3,3,3,0,3,3,3,0,1
e881315175871ca9acafb84c422c5a91,33,1,White-American,Single,No; and not in frequent contact with non-resident father,2,2,2,1,1,0,3,1,2,1,2,2,1,2,1,2,2,3,1,2,1
044f5651b920abc718440c0b19534fc3,32,3,,,,2,1,1,0,1,2,2,0,2,1,2,2,3,3,2,1,3,1,1,2,1
d77b48384a74d22c9f7239e51e09282e,30,1,White-British,Single,I am not 21 years old yet,0,2,3,0,1,2,3,2,0,1,1,1,2,1,3,1,3,1,1,2,1
19f41b6facd7a78c3ceef4fec559cda7,33,2,Native American,Living with an unmarried partner,No; and not in frequent contact with non-resident mother,3,0,3,3,1,2,3,3,2,2,0,2,2,0,0,3,2,0,0,2,1
7127a3528a9fbe068e772cf247e8c574,35,1,,,,2,1,3,0,0,0,3,3,1,1,3,2,2,3,1,2,2,2,2,2,1
11e5948169aa92b840500dfae17c70f6,32,2,White-other nationalities,Single,I am not 21 years old yet,3,2,1,3,0,0,2,2,2,1,3,2,3,0,3,2,2,1,0,0,1
7677a3ff1115438f2c90e9ef88ce8d4a,31,3,White-American,Living with an unmarried partner,Other,2,2,2,2,0,0,2,2,0,2,1,1,2,2,2,2,1,2,2,2,1
1789589a6d2bba0f09d768f8f3445be5,33,4,Others,,I am not 21 years old yet,1,2,0,0,1,3,2,0,1,3,2,3,0,1,1,1,3,3,3,3,1
376cc1797a7cbb41a33c392044fc2794,36,3,African-American or African-European,Single,I am not 21 years old yet,2,1,2,0,1,2,1,0,2,2,2,3,2,2,3,2,2,2,2,3,1
87d2d7a4004966e7ef5c48426e7ad621,31,1,Asian Chinese,Single,I am not 21 years old yet,2,1,0,2,2,2,1,0,1,2,3,1,1,1,0,2,3,3,1,3,1
fe4e8d6bc63f4d75771c0f0d9e7e152b,32,0,White-American,Single,Yes,2,2,1,2,1,0,1,1,1,2,1,2,2,2,2,2,2,2,2,2,1
f94ef75532e74a0a750e9345d02889ab,39,1,White-American,Single,I am not 21 years old yet,3,1,0,3,2,2,3,2,3,2,2,2,2,2,1,3,1,2,3,0,1
7959e48a5c9869a5eb172935f082daa4,33,4,Other Asians,Single,I am not 21 years old yet,2,1,2,2,2,0,2,2,1,1,1,1,2,2,2,2,2,2,1,3,1
2a1e77b348db53b838d5a7fab2548774,30,1,White-other nationalities,Single,I am not 21 years old yet,1,2,2,2,1,2,1,0,2,2,0,0,3,2,1,1,3,0,2,3,1
119aad69d66906e2b748bacd5e2e79ae,34,0,White-American,,I am not 21 years old yet,2,0,2,1,1,3,2,1,1,1,1,2,2,3,1,3,1,3,2,2,1
357fbfc2277b866d8a997ecab062cbc9,33,3,African-American or African-European,Single,Other,2,2,3,3,2,1,1,2,2,1,1,1,1,1,1,3,1,3,2,0,1
496a86771da1e30f0892e489cd2f7b36,35,1,White-other nationalities,Single,Yes,3,3,3,0,2,1,1,3,3,0,2,3,1,0,1,2,1,2,1,3,1
8efebbff1c7831780078e8d590daf08b,42,0,Other Asians,Single,I am not 21 years old yet,2,2,3,0,2,3,3,0,3,3,3,2,2,3,2,1,2,2,1,3,1
d55e07ed2d642946bb4c3ca17e115268,34,1,White-British,Single,No; but in frequent contact with non-resident mother,2,1,2,2,2,1,2,1,2,1,2,2,2,1,2,2,2,2,1,2,1
b87021e13a138ada11e2500c9c9d98ae,32,4,White-other nationalities,,No; but in frequent contact with non-resident mother,3,2,2,1,3,3,2,2,0,3,1,1,1,2,1,1,2,1,1,0,1
396460c978e345324e25b116356b6020,41,0,White-other nationalities,Single,I am not 21 years old yet,3,2,0,1,2,3,3,2,2,3,2,1,3,2,3,0,3,2,3,1,1
83b42f70e17daecbc41b785c2b9ce869,31,1,White-American,Single,I am not 21 years old yet,0,2,2,2,2,0,2,2,2,2,1,2,1,1,2,2,1,1,2,2,1
531e0056fe33e3768aa4a702f819dac9,37,3,White-American,Single,No; and not in frequent contact with non-resident father,3,3,2,2,1,2,1,1,2,2,2,2,2,2,2,2,1,1,2,2,1
e9970fe8848e9505b52d414d81611de8,32,0,White-American,Single,I am not 21 years old yet,1,2,2,2,2,2,2,1,2,2,1,1,2,2,2,0,2,2,2,0,1
8b80f395ebea5dbab387018dbcc8638d,32,4,Middle Eastern,Married,Yes,3,1,1,3,1,1,0,3,0,0,0,3,1,1,3,3,3,2,3,0,1
ff901930a5eaba2dc939d40571f51bb5,33,2,White-other nationalities,Single,I am not 21 years old yet,2,3,2,2,1,3,1,2,1,0,1,2,2,2,1,0,2,2,2,2,1
4691e62b992a7de095d57b0030f8535e,30,0,White-British,Single,I am not 21 years old yet,1,1,1,1,0,3,3,1,2,2,0,2,2,3,0,1,0,2,3,2,1
2a9b90b41e9399bb331fef2582f657c3,31,1,Other Asians,Single,I am not 21 years old yet,1,2,0,0,3,1,0,1,3,2,3,2,1,1,3,1,1,3,1,2,1
b2241d4fbe0b754b0e8559c85d5d26a7,42,4,Other Asians,Single,Yes,2,2,1,2,3,3,3,2,2,0,3,2,3,3,2,2,2,0,2,3,1
25c9e6830974dbeec5dc6229e28ab717,30,2,White-other nationalities,Single,No; and not in frequent contact with non-resident father,0,2,2,1,2,0,0,3,0,1,3,0,3,1,2,1,3,3,3,0,1
e2eac729bb852b7dc6694226af859acc,36,1,White-American,Single,I am not 21 years old yet,3,3,3,1,3,0,3,0,0,3,2,2,3,0,0,2,2,3,3,0,1
98bb32662c064af9a93a1be579fb7532,31,3,Others,Single,No; but in frequent contact with non-resident father,1,1,1,3,1,1,1,2,2,2,1,2,2,2,0,2,3,0,2,2,1
9851e23269d3494627589fc84cf4f7fa,31,2,White-other nationalities,Single,I am not 21 years old yet,3,1,1,2,1,3,2,0,2,2,2,3,2,1,1,0,0,0,3,2,1
a9f9bd991b0014f384bc1ea44515d9a8,36,2,Other Asians,Single,No; and not in frequent contact with non-resident father,0,0,3,0,3,3,2,0,3,3,3,1,0,3,3,0,3,0,3,3,1
db7f1b0130b2138e13b7bbca9cc63823,30,0,Asian Chinese,Single,I am not 21 years old yet,3,1,2,2,2,0,1,3,0,3,1,2,2,0,1,3,1,1,2,0,1
b6b0adf5be5d8127263f5cd82c5e1414,37,0,African-American or African-European,Single,No; and not in frequent contact with non-resident father,3,2,0,0,0,2,2,0,0,2,3,2,3,1,3,2,3,3,3,3,1
cf5a3f66c42918587a1428a6f7d7eec9,33,2,White-American,Divorced,Other,2,1,2,2,2,1,1,2,2,1,2,0,1,2,2,2,2,2,1,3,1
885bfa21524ffa461bf2e29b737ec146,37,1,Other Asians,Single,Yes,3,3,1,0,3,1,2,0,2,2,3,1,2,2,2,2,3,3,1,1,1
e3be456ec1669b09dbee516fb60ee0d2,35,2,,,I am not 21 years old yet,2,2,3,1,2,1,2,1,2,3,1,1,2,2,2,2,1,1,2,2,1
2c126f7226966d6b4e03c42f26ca7c14,31,0,Native American,Single,No; and not in frequent contact with non-resident father,2,3,2,0,0,2,0,1,2,2,2,1,2,3,1,1,2,1,1,3,1
c6065e52c61187ed0db62ccee2654c6b,31,1,White-American,Single,I am not 21 years old yet,3,3,2,1,3,0,3,1,3,0,0,3,0,1,0,1,0,3,3,1,1
6bfd37c25ce5f065b34924d28c088e91,31,1,Other Asians,Single,I am not 21 years old yet,2,0,1,2,3,2,1,3,3,3,2,2,2,1,0,0,3,0,1,0,1
cef02b911426facbb08a03e3af146a9c,30,1,White-American,Divorced,No; and not in frequent contact with non-resident father,0,3,1,3,0,3,2,3,0,3,1,2,1,0,2,2,1,1,2,0,1
b1d81edc5519d124b6b04f60a4873313,31,2,African-American or African-European,Single,Yes,0,0,0,1,3,2,2,3,3,2,2,3,1,1,1,3,1,3,0,0,1
a296a4247ba6f002856c365814cb3c18,30,0,White-American,Single,I am not 21 years old yet,3,3,2,0,1,1,3,1,3,0,1,1,2,0,2,1,0,2,2,2,1
40773224250799fc22cdcdf2a4d3cc82,31,2,African-American or African-European,Single,I am not 21 years old yet,2,2,1,1,2,1,3,2,2,1,1,0,2,2,2,0,3,0,1,3,1
4104c0b8700d519d1661c8a59b065363,37,0,White-British,Single,I am not 21 years old yet,1,2,2,1,3,1,2,0,0,2,3,2,3,2,2,2,3,3,3,0,1
4d121f5120ef7322545d7a6f80e62ade,41,0,Others,Single,I am not 21 years old yet,3,2,1,3,2,2,2,3,2,0,3,0,1,3,3,3,3,0,3,2,1
142635bd7f9ed8e4d8c292fa6ccd9aa4,35,1,White-American,Married with child/children,Yes,2,0,1,2,2,1,1,2,3,0,3,2,2,3,1,2,2,2,2,2,1
090dd511c63a028cbd1ae9f297619354,33,2,Asian Chinese,Single,I am not 21 years old yet,1,2,1,1,2,3,0,1,1,3,3,3,1,0,1,3,2,1,2,2,1
e2a4870012360da5fd48ad8962be3bd9,30,0,White-other nationalities,Living with an unmarried partner,Yes,1,1,2,2,2,1,1,2,1,2,1,2,1,3,2,1,1,0,1,3,1
247ba8e820c3d4e83efbada0318251f3,36,4,White-other nationalities,Living with an unmarried partner,No; and not in frequent contact with non-resident father,3,2,3,2,0,1,2,2,0,0,3,2,2,3,0,2,1,2,3,3,1
0e56291f2a2eb18fe5b7d90401e87d34,38,1,White-American,Single,I am not 21 years old yet,2,2,1,3,2,1,3,2,1,3,2,2,1,3,1,1,3,2,1,2,1
23b0e7534981382c9ac2672f5c6daba8,30,1,White-other nationalities,Single,I am not 21 years old yet,1,3,0,3,2,2,0,3,2,0,0,1,1,1,2,3,3,0,0,3,1
c14cc56b201f03cef21970f0a7fcb328,30,1,Others,Single,No; and not in frequent contact with non-resident mother,1,1,2,0,0,2,1,3,2,2,2,2,1,3,1,1,1,0,3,2,1
77ad12a1c7a2a2ef6c16f9b053b8b9bc,33,3,White-American,Single,I am not 21 years old yet,2,3,2,1,3,0,2,1,2,3,1,1,2,2,1,0,2,2,2,1,1
4d387d6752f49efa48afb2c3aba97263,32,1,Others,Married,Yes,1,0,0,3,3,2,1,2,2,1,0,2,2,2,1,3,1,3,0,3,1
23cbbe03a89344129e1a6d8419a66d23,38,0,White-American,Single,No; but in frequent contact with non-resident mother,3,2,1,2,2,0,0,0,3,3,2,2,3,2,2,2,0,3,3,3,1
53f9224b36d89dca99103a83f9df94b0,39,0,White-other nationalities,Living with an unmarried partner,I am not 21 years old yet,0,3,3,0,1,3,3,0,3,3,3,1,1,1,3,0,3,2,3,3,1
8ff6192bbbb717c36097b33e244d91de,31,3,White-American,Single,I am not 21 years old yet,2,1,3,1,3,2,0,2,2,1,0,2,2,0,3,2,0,3,0,2,1
af866a41657e88b4deda5e34198d7e39,35,2,White-British,Single,Yes,2,2,1,3,2,1,2,1,2,2,2,1,0,3,1,1,3,1,2,3,1
cd86d1e6d68c3770eaec0db419dceb2f,38,0,White-American,Single,No; but in frequent contact with non-resident father,1,3,3,0,1,1,3,1,3,3,1,3,3,3,0,1,3,3,0,2,1
a504bfd98bdc8e7a61edcfe8c4e2a801,34,3,,Single,No; and not in frequent contact with non-resident mother,2,2,3,3,1,2,1,1,3,2,1,2,1,2,2,1,3,0,0,2,1
67108ce32009962caa2c62b4530c0dbb,38,1,White-American,Living with an unmarried partner,I am not 21 years old yet,3,1,3,0,3,0,1,3,1,2,3,3,2,3,1,3,1,2,2,1,1
6f780cf2b8d1c05277640c28e0733464,31,0,White-American,Single,No; but in frequent contact with non-resident father,2,2,2,2,1,2,3,0,2,1,1,3,2,1,1,0,2,2,1,1,1
62c4578c9c40a8d42aee4e9d73b43447,34,2,Others,Single,I am not 21 years old yet,1,2,2,1,3,2,3,1,0,2,1,3,1,2,3,3,0,0,2,2,1
dc9d8b2d0083cf18e8e1d16afc4e5395,46,0,White-American,Married,Yes,2,2,1,3,0,3,2,3,3,1,3,3,2,3,1,3,3,3,2,3,1
f23fbfc03de736258e2054c548da3084,33,2,White-American,Single,I am not 21 years old yet,0,0,1,1,2,1,1,2,1,3,3,2,3,2,3,1,0,3,2,2,1
91607935d5929b663e3d935f6e73a9d8,34,1,White-American,Divorced,No; and not in frequent contact with non-resident father,0,0,3,0,3,1,0,1,0,3,3,0,3,3,3,1,3,3,1,3,1
5651e94ff56b2549066153a04fe38261,31,4,Middle Eastern,Single,No; and not in frequent contact with non-resident father,2,1,0,1,3,2,1,3,3,1,2,2,2,2,1,1,0,1,2,1,1
1b3cc0a2283ae955e9629f7244cca000,45,3,White-British,Single,Yes,3,3,0,3,2,3,3,0,3,0,1,0,3,3,3,3,3,3,3,3,1
1c1140acd4c8503822bdcc8250c7ed71,34,3,Other Asians,Single,I am not 21 years old yet,2,0,3,0,2,3,3,3,1,3,2,1,3,3,1,0,0,3,0,1,1
a53553e542184b217b96bfe7771698ae,31,0,White-American,Single,No; but in frequent contact with non-resident father,1,3,1,0,1,3,1,0,3,2,3,1,0,3,1,1,3,0,1,3,1
f3415e5425ed44581160dee354d3c278,32,1,White-American,Married with child/children,Other,1,3,0,1,1,1,3,2,1,0,3,2,2,3,2,2,2,1,1,1,1
246f769b5b2a8def141d5c8e3ce5ed5f,32,3,Middle Eastern,Single,Yes,0,1,0,2,1,2,3,1,2,2,3,1,1,3,1,0,3,3,3,0,1
63cfe619eb1a1ffb8f40a45571d6915c,30,2,White-British,Single,No; and not in frequent contact with non-resident father,0,1,2,0,3,2,0,0,2,2,0,3,2,3,1,3,1,2,2,1,1
77acd9dde76233b3ea2fd5e0ef142571,30,1,White-American,Divorced,Other,1,0,1,1,3,1,2,1,2,3,3,0,2,1,1,2,2,1,1,2,1
dc20f5b91f427d65c9fdbab6d45c8bc2,30,1,White-American,Single,I am not 21 years old yet,3,1,2,3,2,1,0,3,2,0,1,2,0,0,0,3,2,2,3,0,1
b0acac95493fc438ce56372eebde2b0e,39,4,White-other nationalities,Single,No; and not in frequent contact with non-resident father,3,2,1,2,2,1,3,2,1,2,2,1,1,3,2,2,3,2,2,2,1
3fc16d9aa62562b2b2552bb581889da1,35,3,White-other nationalities,Single,I am not 21 years old yet,2,3,0,1,3,2,3,1,1,3,3,0,3,0,2,1,3,3,0,1,1
e5d8e6ca83159cb03db2557d5d5b6192,38,0,White-other nationalities,Married with child/children,Other,3,3,3,1,0,2,3,0,3,3,3,1,0,2,1,0,3,3,2,2,1
4570be33e00ca1c1c8313ceaed82aa50,32,1,White-other nationalities,Single,I am not 21 years old yet,2,3,2,3,1,3,1,3,2,1,2,2,3,1,1,2,0,0,0,0,1
e2e91e96bbda5245213243ab7f70ddd8,35,0,African-American or African-European,Single,I am not 21 years old yet,2,3,3,1,3,1,2,1,2,3,1,1,1,2,2,1,3,1,1,1,1
59768c52ff000feb3a270c456c40333d,30,2,White-other nationalities,Married,Yes,1,3,2,0,2,0,1,2,3,2,0,3,0,1,2,3,0,0,3,2,1
15d3baad45df60861e9faaa1592b52f3,39,3,Other Asians,Living with an unmarried partner,Yes,2,0,3,1,3,3,3,0,3,3,2,3,2,2,0,0,0,3,3,3,1
995e4ebabf51c8603826114f233b66d5,31,1,Others,Single,Other,0,3,1,1,2,0,1,3,1,2,0,3,2,1,3,1,2,3,2,0,1
a6336ec5e11839ae33aee01fa2163652,37,0,White-American,Single,I am not 21 years old yet,1,3,3,1,1,1,2,1,2,3,2,1,2,3,2,3,2,3,1,0,1
4987f852de2479dffbc7fc1e75668388,36,3,White-British,Single,I am not 21 years old yet,1,3,2,1,2,1,3,2,1,1,2,1,3,1,1,1,3,3,2,2,1
36d598ce6ba72436b6757d7ef42b3ac6,34,0,White-British,Single,No; but in frequent contact with non-resident father,0,3,3,0,3,0,0,0,3,3,0,2,3,2,3,0,2,3,1,3,1
3ee3b705d076e609512dc2f93acbba02,37,3,White-American,Single,I am not 21 years old yet,2,3,3,1,2,2,3,1,2,2,2,2,1,1,1,3,2,2,1,1,1
f555812c118db1ecd99eec2072bbf08e,31,1,White-American,Single,Other,3,3,2,1,2,1,1,0,3,1,3,0,2,3,0,0,3,1,0,2,1
9f2b014b5e89aea39b7d1df065242a30,38,0,White-other nationalities,Single,No; and not in frequent contact with non-resident father,3,3,0,0,2,0,2,3,3,2,3,1,3,3,3,0,2,3,2,0,1
8604752e6154e3cb95ae7af5f9677309,30,2,White-other nationalities,Married with child/children,No; and not in frequent contact with non-resident father,2,2,1,2,2,2,1,3,2,2,2,2,0,2,1,2,0,0,1,1,1
1436ccb459cf7166b8e6926e9d2b6950,30,0,White-other nationalities,Single,Other,2,2,0,0,2,2,2,2,2,0,0,2,1,1,3,3,2,2,1,1,1
d290e316f86ce955ff64d4a221423821,37,3,Other Asians,Single,Other,1,0,3,0,0,1,2,1,2,3,2,2,0,3,3,3,3,3,3,2,1
b625b326f0cbe4a6be514b624d5fd4ea,32,2,Others,Single,I am not 21 years old yet,1,2,0,0,3,2,2,1,0,2,2,1,2,2,2,2,2,2,3,1,1
953149c4a7f539fed83161cee05ec6c0,32,2,White-American,Single,Yes,3,3,1,2,1,1,0,2,2,1,2,0,2,1,3,3,2,1,1,1,1
fb770f1bf2134b264f1ceafb541fc00c,36,0,White-American,Single,I am not 21 years old yet,2,1,2,0,1,3,3,2,2,1,2,1,3,3,2,2,1,3,1,1,1
12bca3ae16aabaa2ae2a33d54d0c1516,35,0,White-British,Single,Other,2,3,0,3,3,3,1,0,3,3,1,2,3,0,1,0,1,3,3,0,1
0de3fb81289774833b1a3ff7e5b86701,31,3,White-American,Single,Yes,0,3,3,0,3,0,1,1,3,3,2,0,2,1,3,0,3,0,0,3,1
b5efdb17945bc5ac2504e6c0c70f41b1,31,2,White-American,Single,I am not 21 years old yet,1,2,2,3,1,1,2,2,2,2,1,2,2,1,1,0,2,0,2,2,1
f5fb82dcec93d706b05d47ab7d12d390,32,2,White-American,Single,I am not 21 years old yet,3,3,2,1,0,2,2,1,3,1,2,0,2,0,1,1,3,0,2,3,1
e1cdac10d136e76e064e4860007d786d,36,1,Others,Single,Yes,2,1,2,3,3,2,2,2,1,2,3,1,3,1,0,3,3,0,0,2,1
23446b876041e8e15f976d7aa70cea13,39,4,White-other nationalities,Living with an unmarried partner,No; and not in frequent contact with non-resident father,2,3,3,3,1,1,3,2,3,1,2,1,3,3,2,0,1,2,1,2,1
59b5b8912d258bc58286a604d1e5e421,31,0,Other Asians,Single,Yes,3,3,3,3,3,3,0,0,0,3,0,0,3,0,1,0,3,0,0,3,1
5c3a9dd0b0250d7771adc343f7cdb8e1,33,4,Other Asians,Single,Yes,1,1,2,1,2,1,1,0,2,1,1,3,3,1,2,2,3,3,2,1,1
eaeabcfe25866f0455d349bae2450d88,39,0,White-British,Single,I am not 21 years old yet,2,2,2,1,3,0,3,2,2,3,3,1,3,2,1,1,3,2,3,0,1
a36b5610cdc120eda6507c40adc597c8,36,3,White-American,Divorced,,3,2,2,0,2,3,2,0,1,3,2,0,3,1,1,3,2,3,2,1,1
e23570d2dc6e6ac6adf320c91e0826df,39,3,White-other nationalities,Married,Yes,1,3,3,3,2,2,3,3,1,0,2,0,0,3,3,1,3,1,2,3,1
b0db80e36277fd34cbfd183711b3246d,33,0,White-British,Single,No; and not in frequent contact with non-resident father,3,0,0,2,2,0,3,3,1,2,2,1,1,1,1,3,2,2,2,2,1
2b03fed6689963629bed97bfd4d594cc,33,1,Other Asians,Single,Other,0,0,3,1,3,0,3,1,2,2,2,0,3,3,0,0,2,2,3,3,1
29cda473b52e1c75fbfe958ed3aec565,31,0,White-American,Married with child/children,No; but in frequent contact with non-resident father,0,2,2,1,2,3,2,1,1,2,0,1,1,1,2,2,0,3,2,3,1
07244b3fd4536a8eea069ab02057e220,35,1,White-other nationalities,Living with an unmarried partner,No; and not in frequent contact with non-resident father,3,2,0,0,3,1,1,3,0,3,0,3,1,3,3,0,3,0,3,3,1
28aab319df58927f3c37d565a42186b9,34,3,,,,1,3,3,0,2,3,1,3,1,0,3,3,0,2,0,0,3,3,1,2,1
effcd9794a9ec39620d60d4520066216,33,2,Others,Married with child/children,Other,2,2,1,1,3,0,3,2,1,2,3,2,3,1,0,2,0,3,2,0,1
3e971ea016ff2dd842475370b2d2dc0c,33,2,Other Asians,Single,Yes,3,3,0,0,3,0,1,2,1,2,3,3,2,1,0,3,0,3,2,1,1
caad2250871aacd68f5b405d44f80499,37,1,White-American,Single,No; and not in frequent contact with non-resident mother,2,2,2,3,2,3,2,2,3,0,2,2,2,2,3,1,0,2,1,1,1
2f8b2c45240876273121d77072b5c17b,45,1,Other Asians,Single,I am not 21 years old yet,2,3,3,2,3,3,3,1,3,3,1,0,2,2,3,2,2,2,3,2,1
7597e9a96889f6b21b784f1465cf81f6,33,1,Others,Living with an unmarried partner,Yes,3,1,2,0,2,3,2,2,1,3,1,2,2,0,1,2,2,0,2,2,1
47f5a07710791c42be7e23e5b99f5ef6,35,1,Other Asians,Single,Other,3,3,0,1,3,1,2,2,0,0,3,2,3,2,1,2,1,3,2,1,1
5d386dee1362ddfc49576ccda8a80e80,38,3,Native American,Single,I am not 21 years old yet,3,0,3,3,3,1,2,0,3,3,3,0,3,2,1,0,3,0,3,2,1
b5cdd94160c1ca8938dee8e4202e6455,35,0,White-American,Single,No; and not in frequent contact with non-resident father,3,3,0,0,3,3,3,0,0,3,2,0,3,3,0,0,2,3,1,3,1
011679a3ae49998801ada93d822b7302,35,0,White-American,Living with an unmarried partner,I am not 21 years old yet,3,2,3,1,2,1,0,1,1,3,2,2,1,2,2,1,2,2,2,2,1
ca745fc1747c3252bb6e5be40c5d91de,30,1,White-American,Single,No; but in frequent contact with non-resident father,1,3,0,3,0,0,0,3,3,3,0,1,1,2,1,2,0,3,2,2,1
94d9df4783ff58d5b196cb12afe1a630,37,0,White-other nationalities,Living with an unmarried partner,No; but in frequent contact with non-resident father,1,1,2,0,2,3,3,1,3,2,1,0,2,2,3,2,2,3,1,3,1
51ad38195cad45484da4149858e4f1b5,34,4,White-American,Living with an unmarried partner,I am not 21 years old yet,1,2,2,0,3,3,3,1,2,2,2,2,2,2,1,0,1,2,1,2,1
25c68399f38b70d0466ae022feb4fe6a,41,4,White-American,Living with an unmarried partner,No; and not in frequent contact with non-resident father,3,2,3,2,1,3,2,1,3,1,3,2,2,2,3,0,1,3,1,3,1
2af06a0d2c453ef4340280ae57348351,35,1,White-American,Single,Yes,3,3,2,3,3,3,1,0,1,3,1,1,1,2,0,0,1,3,1,3,1
c27f06a64c74ff8d8593da7861f81ec8,37,2,Asian Chinese,Divorced,Yes,2,0,3,1,3,3,2,1,2,3,2,1,2,3,2,0,3,2,0,2,1
ddb5453576c537bf4f97cff24102c170,33,0,White-other nationalities,Single,No; but in frequent contact with non-resident father,1,2,0,2,0,2,2,2,3,1,2,3,3,2,1,0,2,2,1,2,1
504db13d07c77ff545a29ea638a727af,36,0,White-American,Single,I am not 21 years old yet,1,2,3,1,2,2,0,2,0,2,3,2,1,3,3,1,2,3,2,1,1
223dbfbc2451d4ffaf244cc1e6c3abbb,30,1,Native American,Single,No; but in frequent contact with non-resident father,1,1,2,1,1,2,2,1,1,3,1,2,1,2,3,0,0,3,1,2,1
d42f4945517c45eb2ba65aad271b0fd9,37,0,Other Asians,Single,I am not 21 years old yet,0,0,3,1,2,2,3,0,3,3,1,1,2,3,3,3,2,3,2,0,1
2fba0f9dccc84f3516d8b553426af527,31,0,White-American,Single,Yes,1,2,2,2,2,2,2,1,1,2,2,1,1,1,2,2,1,1,2,1,1
b3c14e074e2aab8d6a163472791442f8,35,3,African-American or African-European,Single,Other,3,2,2,2,3,2,1,0,2,2,3,1,0,1,2,3,1,3,0,2,1
1c1a61d11a10f9fa967f250095792db3,33,2,White-British,Single,I am not 21 years old yet,1,1,3,2,3,2,0,1,2,1,3,0,2,2,2,0,3,2,3,0,1
0a7cad88b8fa4d2682b1c52376a81800,31,2,White-American,Married with child/children,Other,0,3,1,0,3,0,1,3,2,0,0,3,3,3,0,3,3,3,0,0,1
7a34c9c7e776fbf964d6da8a5c191557,31,2,Other Asians,Single,Yes,2,1,1,2,0,1,2,3,2,3,1,2,1,2,1,0,2,1,2,2,1
38a97fcd863468bd654d58e1d808c482,38,0,White-American,Single,I am not 21 years old yet,2,0,0,0,3,3,3,0,3,3,2,1,3,3,2,1,3,1,3,2,1
10fd2ca32d15994064627281da72f5bd,37,3,Other Asians,Single,Yes,1,0,3,0,3,2,3,1,3,0,1,0,2,3,3,3,1,3,3,2,1
4f187f7647635355feae204a7e3ab15c,32,0,,,,1,3,2,1,2,0,0,1,1,2,3,1,2,0,1,2,3,3,2,2,1
303ae1c4c034f9ab68985d9515cf1368,32,1,Other Asians,Single,I am not 21 years old yet,1,1,3,1,1,1,1,2,1,3,3,3,2,2,1,0,3,1,0,2,1
fab0db4fad0f9cbecde2c8e2206fa43c,32,3,,,,1,0,3,0,0,3,0,3,3,3,1,3,0,0,2,1,3,3,0,3,1
18f69ed40390b2987f8701f54960568a,38,3,White-British,Single,I am not 21 years old yet,3,3,1,2,3,1,3,0,1,3,3,2,3,2,3,2,3,0,0,0,1
905aa8f3783164bd023051c8a7f6c174,35,0,White-American,Single,No; and not in frequent contact with non-resident father,1,1,2,2,1,2,2,0,3,3,1,2,3,3,1,3,0,0,3,2,1
0e8f270a9b126c3839044391deb1d4e2,39,0,White-British,Single,No; but in frequent contact with non-resident father,2,0,1,3,3,3,3,0,3,3,1,2,2,3,1,1,3,1,2,2,1
308810c4d1a30a507600e80a17909e2c,30,2,White-American,Single,Yes,2,2,0,0,3,3,1,2,2,2,1,2,3,1,0,1,2,1,1,1,1
4da0add98e27cb8a922da3b910a6fc53,31,2,White-other nationalities,Divorced,Yes,1,1,0,0,2,2,1,2,1,1,2,1,2,2,3,3,2,1,3,1,1
93aad51db094fd86c49666ac8b5f026f,33,1,African-American or African-European,Single,I am not 21 years old yet,3,1,2,0,3,1,0,2,3,0,0,3,3,2,2,0,3,2,1,2,1
98bcd7e7d81d569867b11f4c99f61d78,32,2,Others,Living with an unmarried partner,Yes,1,0,1,3,2,2,2,0,1,2,2,2,1,2,2,3,2,1,1,2,1
26683bffa623a777c5c3a7836710f527,32,4,White-other nationalities,Single,I am not 21 years old yet,2,2,-2,2,1,2,1,2,2,2,2,1,2,2,0,1,2,3,1,2,1
b24c0d1672d7e8429c014b4abceeebbc,34,0,White-American,Single,I am not 21 years old yet,3,2,2,0,3,3,3,0,2,0,2,2,3,2,3,0,1,2,0,1,1
0db30ddf6bde2bf4a88c377f0cd6047a,39,4,Others,Living with an unmarried partner,No; and not in frequent contact with non-resident father,1,2,1,1,0,3,2,1,3,2,2,3,2,1,0,3,3,3,3,3,1
d42cf9aee249a08bff892a1223b4df2e,33,3,White-American,Single,No; and not in frequent contact with non-resident father,1,0,2,0,2,3,2,1,1,1,1,1,3,3,3,1,2,3,1,2,1
ac99e20c5442b03f050d53cd3e70778b,35,1,Native American,Single,No; and not in frequent contact with non-resident father,1,2,1,2,1,3,1,3,2,2,2,3,2,2,1,2,1,2,1,1,1
4d5c4fd8a061482732fc1d2526839e25,46,1,White-other nationalities,Single,Other,3,3,2,0,3,2,3,2,3,3,1,0,3,3,3,0,3,3,3,3,1
6921d85c34477e86f5051932ebd6835b,32,4,Others,Single,Yes,3,1,0,3,3,2,0,2,0,2,0,2,1,0,2,3,3,1,2,2,1
87a4827e03a250458443caa5b961987a,38,0,White-British,Divorced,No; but in frequent contact with non-resident mother,3,1,3,2,2,0,2,2,0,3,2,0,3,3,2,1,3,3,0,3,1
cc206fdf7ed17d9862f9dd969ec659bc,47,3,Other Asians,Single,Yes,3,3,3,3,2,3,0,0,3,3,0,3,1,3,3,3,3,3,3,2,1
3fecb6e0f87a957db1188960cd56be41,35,2,Other Asians,Single,No; and not in frequent contact with non-resident father,2,1,1,3,0,1,3,2,2,3,0,3,1,1,2,3,2,1,3,1,1
d38a81dfbfbbd5f2a2a0a03e9db304c6,34,4,White-other nationalities,Single,Yes,3,2,2,3,3,1,0,3,1,0,2,2,1,1,1,1,1,2,3,2,1
6cfb7bd0f6704a58accdf47ca8636ab3,36,0,White-American,Single,I am not 21 years old yet,1,2,2,2,2,3,2,1,2,2,1,1,3,1,3,2,2,1,2,1,1
2eedcc9edd76d99e6943095e45fc02e9,39,2,White-American,Single,Other,1,2,1,0,3,0,3,0,2,1,3,3,3,3,3,0,3,2,3,3,1
65cfb9f7ecff45c9dae88b9339b16b1a,36,0,White-other nationalities,Living with an unmarried partner,I am not 21 years old yet,3,3,1,0,3,2,2,0,3,0,3,0,3,0,2,2,2,2,2,3,1
b76fa5fcca4d6ae77eeee584318f0c87,33,2,White-other nationalities,Single,Yes,1,1,3,0,3,0,2,2,3,3,2,1,2,0,3,0,2,2,3,0,1
f68268e212bc1ac0dff21524f6f73b3d,32,2,,,,3,0,3,2,3,1,1,2,1,1,1,1,2,1,2,0,0,3,3,2,1
594b8ba3b30a56cd703bbafe11041147,37,1,White-other nationalities,Single,I am not 21 years old yet,2,2,1,0,3,1,2,3,3,2,2,2,2,0,2,2,1,2,2,3,1
47fd47e0f55e599821bed164a56433f9,30,2,Other Asians,Single,Yes,1,1,1,1,0,1,2,1,2,2,2,2,2,1,1,2,1,2,2,3,1
a76902358958921abf1bfc07631a5f65,36,1,Other Asians,Single,Yes,3,0,3,1,3,3,2,1,3,2,3,0,3,3,3,0,3,0,0,0,1
1c1a87c25993e30ed27d821e61e51c67,31,1,White-American,Single,Yes,2,1,0,1,0,2,1,1,2,3,2,1,2,2,2,1,1,2,3,2,1
04be1d6fa64adb60a3d2847f4f905ec1,36,2,Other Asians,Single,I am not 21 years old yet,3,0,3,0,3,2,2,2,1,0,2,3,0,3,3,1,3,2,3,0,1
4fe7be93853af48034fb053a0d0a7747,34,3,White-British,Single,I am not 21 years old yet,2,0,3,1,2,2,2,2,3,2,2,1,2,3,1,1,0,1,3,1,1
7175a46eaf9d0a6e00c562bfaa614360,32,1,White-other nationalities,Single,No; and not in frequent contact with non-resident father,3,3,0,0,1,0,2,3,2,1,2,0,2,1,3,1,2,3,2,1,1
3a22ecf7125d120b6ca783020d86cb40,35,3,White-other nationalities,Married with child/children,No; and not in frequent contact with non-resident father,2,1,3,2,2,1,2,1,1,2,2,2,2,2,2,1,2,1,2,2,1
088bf0ed841bcc366475b3975eb1b9d2,42,2,White-American,Single,No; and not in frequent contact with non-resident father,0,2,2,3,3,3,2,1,1,3,3,2,3,3,0,2,1,3,3,2,1
191e5a77eb18bfc5026f35a3eb4539a1,41,2,White-American,Single,I am not 21 years old yet,2,2,2,1,1,2,1,3,3,3,2,2,3,3,2,1,2,1,2,3,1
0f0f2309e273495e1a909fab1c3859e6,41,0,Other Asians,Living with an unmarried partner,I am not 21 years old yet,3,3,3,1,0,1,3,1,3,3,2,0,1,3,3,0,3,3,2,3,1
a7a3af125074cb806a200f51ea7e10bf,38,3,White-other nationalities,Single,I am not 21 years old yet,0,3,3,0,1,0,3,3,0,3,2,3,3,2,3,2,2,0,3,2,1
052d07c87f511121889e653d7151e931,38,2,,Single,,3,2,3,2,2,2,0,2,3,0,2,0,3,1,1,1,3,3,3,2,1
d8ce5198df2ad16c79b34d49bb64098a,42,2,White-other nationalities,Single,No; and not in frequent contact with non-resident father,2,3,3,3,2,0,1,3,1,3,3,3,3,3,3,0,3,1,1,1,1
17938acf2d8d382eac91a3072bcae8b5,34,2,White-American,Living with an unmarried partner,I am not 21 years old yet,1,2,2,1,2,0,2,1,3,2,2,2,1,2,1,1,2,3,2,2,1
320c7c0997ad8fdfd0fdf6ee1832c64e,40,2,Others,Single,No; and not in frequent contact with non-resident father,3,1,3,1,3,3,0,3,1,3,2,3,2,0,2,1,3,3,0,3,1
9f9942d7da2fde6b17d683aa90164a38,32,0,Other Asians,Single,I am not 21 years old yet,1,2,1,1,3,1,1,1,1,3,2,1,3,0,3,3,2,3,0,0,1
06165dddbf8856657d57d27600c4944c,39,2,White-American,Single,Yes,3,3,3,3,2,2,3,3,1,3,2,2,2,0,2,3,1,0,1,0,1
3aac76fd5c5b0115f67dfcfe3850cf7c,31,4,White-other nationalities,Single,I am not 21 years old yet,1,1,1,2,1,3,2,2,2,1,2,1,1,2,2,2,0,3,0,2,1
4717ae67c4c469d13ab7d7fa53a4d632,30,2,White-American,Single,I am not 21 years old yet,2,1,1,0,1,2,2,1,1,3,0,2,2,2,2,1,1,1,3,2,1
03e6c4eca4269c183fa0e1780f73faba,32,2,White-other nationalities,Single,I am not 21 years old yet,2,2,0,1,2,2,2,3,2,0,1,2,2,2,1,2,1,3,0,2,1
f16fd48e4970abdf9df5fe67a4005386,30,2,White-American,Single,I am not 21 years old yet,1,1,0,3,0,2,2,3,3,0,1,3,2,2,1,3,0,1,1,1,1
f9eb7d32a6748f3d9e7ae378b956dd9b,35,4,African-American or African-European,Divorced,Other,2,2,2,1,2,1,3,3,1,2,0,2,2,3,2,1,2,3,0,1,1
dac62770e827c267c0c203da8e15de17,36,0,White-American,Living with an unmarried partner,No; and not in frequent contact with non-resident father,3,3,3,0,3,3,3,0,0,3,0,0,0,3,0,0,3,3,3,3,1
ec3dc451b8a811f05ace158a0d76e32e,34,2,White-American,Single,Yes,1,3,2,2,1,0,3,0,2,3,2,2,1,0,3,2,1,2,1,3,1
0765c56b2da0e50568488dbbbe93751b,30,4,White-American,Single,No; and not in frequent contact with non-resident father,2,2,2,3,1,3,2,1,1,1,1,2,2,2,2,1,1,1,0,0,1
0ab7efcd582b43d58c1fec65058efa72,33,3,White-American,Married with child/children,Yes,1,1,3,0,1,2,2,3,3,3,3,0,0,1,3,1,2,2,1,1,1
1b92f9f45ecf187571242e6183aed8b1,30,1,Other Asians,Single,I am not 21 years old yet,1,1,1,2,2,2,2,3,0,1,2,1,2,0,1,1,2,2,3,1,1
d0dcc7d37ccd7d5b9eee83ebfb0d491d,30,0,White-American,Single,Yes,2,2,3,1,1,2,2,2,1,1,1,1,3,2,1,1,1,0,2,1,1
b68be8e3d1a310f89765f2b1bd49e548,34,2,White-American,Living with an unmarried partner,No; and not in frequent contact with non-resident father,1,1,3,1,3,3,0,1,2,2,1,2,1,1,3,2,1,2,2,2,1
3a988007bdc183c6b3fb12da0e43d107,30,3,White-American,Single,No; and not in frequent contact with non-resident father,2,1,1,1,1,3,1,0,2,2,0,3,3,1,2,1,2,2,1,1,1
d65c9ff152c74fcdc74e3dcdd5cbabfa,31,2,Middle Eastern,Single,No; but in frequent contact with non-resident father,0,1,2,0,2,3,1,2,3,2,0,3,3,2,1,0,2,3,0,1,1
a36b4cef4e8f9a7baa73461c761d8753,30,0,White-American,Single,No; and not in frequent contact with non-resident father,2,2,1,2,2,1,1,1,2,0,2,2,0,1,0,3,2,2,2,2,1
27a92df10fe901b00d633e3e83c8c4de,38,2,White-American,Single,I am not 21 years old yet,2,2,3,1,2,2,1,2,3,1,3,1,3,2,3,1,1,1,2,2,1
61403c14fc11324a4d393cbde9f0f2e8,30,3,White-British,Single,No; and not in frequent contact with non-resident father,0,1,3,2,2,1,2,3,0,0,1,2,3,0,2,3,1,2,0,2,1
054e5fd22c26a92926a61c261c99054c,31,1,,,,1,1,2,0,1,2,3,1,1,1,2,1,1,3,2,1,1,2,2,3,1
5edc878620364f1c30717717aa5cd328,40,0,White-American,Single,Yes,2,0,3,0,2,2,3,2,3,3,3,2,0,3,3,2,3,2,0,2,1
61cde889b596924bc8eb8c8d5aa956a8,37,2,White-other nationalities,Single,Yes,3,3,0,3,0,2,0,2,0,2,3,2,1,3,3,1,3,1,2,3,1
6652af8f87f0f01af8ca2456c2e8a24d,34,0,White-American,Living with an unmarried partner,I am not 21 years old yet,1,3,2,2,0,0,0,3,2,2,2,1,2,2,1,1,3,2,2,3,1
0846a688fabc9c78c9bef2d0787ad5c8,39,2,Others,Single,I am not 21 years old yet,1,3,1,2,2,3,3,1,2,3,3,0,3,2,3,1,3,0,3,0,1
d7a7f477a7d4a75a9fc33d4326078d28,34,0,Others,Divorced,Other,0,3,1,1,3,1,3,0,1,3,3,1,0,3,0,0,2,3,3,3,1
35ae36fe4a9fd2b67410b47af739e877,31,1,White-American,Single,I am not 21 years old yet,2,1,3,2,0,3,1,2,2,2,0,2,1,2,2,2,0,2,1,1,1
ad30ce6078fd6ea54abca85610fba76f,32,1,Others,Single,I am not 21 years old yet,2,3,2,1,2,3,2,1,1,2,1,0,3,1,2,1,2,1,0,2,1
da15caa632bc137b9baa7e483b115fd5,40,2,White-American,Single,I am not 21 years old yet,3,1,2,2,3,3,2,2,3,1,2,1,2,2,2,2,2,3,1,1,1
397fcc0ac7160943334725fb38d499c6,38,2,Others,Single,I am not 21 years old yet,3,2,0,2,3,2,3,3,2,3,1,1,1,1,3,2,2,2,1,1,1
df8469e9137180f138c72b3c581f07b0,32,2,Other Asians,Single,Yes,2,0,3,3,3,2,0,0,2,1,3,0,3,2,0,0,3,2,3,0,1
16b50b14c2ba5cf9b3c3d66589011e0b,30,1,Other Asians,Single,I am not 21 years old yet,2,1,2,1,2,1,2,1,3,0,0,1,2,2,2,2,2,1,2,1,1
6d49ec5ec6219e517036db46376e6deb,30,1,White-American,Living with an unmarried partner,Other,1,0,2,1,3,2,0,2,2,0,2,3,2,1,3,0,1,2,1,2,1
4e05b41c8d1de538122d8553798c66fa,34,1,,,,3,1,2,1,3,1,2,0,2,2,1,2,1,2,0,1,2,3,3,2,1
01530624766b3be63c7709c6581c335d,32,2,White-American,Single,No; and not in frequent contact with non-resident father,2,3,3,0,3,0,2,1,3,2,0,3,1,0,2,1,0,1,3,2,1
79eb6e86ebfa142cda2c5e39a25ae26f,30,0,White-British,Single,I am not 21 years old yet,3,2,2,1,0,3,2,1,1,1,3,0,2,0,2,1,2,0,1,3,1
1827f641b3ba066d3b4bf4f920ee8ed1,30,2,Other Asians,Single,Yes,1,1,2,2,2,1,1,1,2,2,2,1,2,0,2,2,2,1,2,1,1
810e9b1b51be95b66789783641e2285a,31,3,White-other nationalities,Living with an unmarried partner,No; and not in frequent contact with non-resident father,2,0,2,0,2,2,3,0,2,3,2,0,3,3,1,2,2,0,1,1,1
d2703c13d8cb359b941c0174055ff7c7,35,2,White-American,Single,Yes,2,1,1,2,2,1,1,2,0,2,2,2,3,2,3,0,2,2,3,2,1
4b026d0d25fb64aeb2d3882edecbbfc2,32,1,White-other nationalities,Single,Yes,0,0,2,3,2,1,3,1,3,2,2,3,2,1,2,2,0,3,0,0,1
f97beeae7a13a4e10d891113d70680dd,35,3,Other Asians,,Yes,1,2,2,3,3,3,1,0,3,1,2,2,2,1,3,1,3,0,0,2,1
c2f408f2e2a726840b41ed2c6721673d,34,1,African-American or African-European,Living with an unmarried partner,No; but in frequent contact with non-resident father,2,0,2,3,2,2,2,2,1,3,2,1,1,0,1,1,3,2,1,3,1
8c393982479748c5a53acaa7a3717c71,35,0,White-American,Single,No; and not in frequent contact with non-resident mother,2,2,1,2,2,2,2,2,3,3,2,0,2,2,1,1,1,2,1,2,1
a122cc9043dd7a49cd7c327d45167524,30,4,White-American,Single,Other,1,2,1,2,1,0,2,1,2,2,0,2,3,2,1,2,0,2,2,2,1
fbc2e784739d0ced1e826120474ebe42,33,1,Other Asians,Single,Yes,0,2,1,0,0,3,1,0,1,3,2,1,3,3,3,0,3,3,1,3,1
88b3def9a32e31d4d880b62a1195dad2,30,0,,Single,Yes,2,1,1,0,0,2,1,1,2,3,1,0,1,0,2,3,2,3,2,3,1
3a991c0ceaa292165b56dbe939eff3ce,30,2,White-American,Single,No; but in frequent contact with non-resident father,2,1,2,1,2,2,0,1,3,2,2,2,2,2,1,0,1,1,1,2,1
802766e3b0c3d6aea9e0fe9359c6ae87,30,2,White-other nationalities,Single,Yes,0,0,3,3,0,0,0,3,0,3,0,0,0,3,3,0,3,3,3,3,1
9e17e6c19c1d34ef60a512e949f57381,35,3,White-American,Single,I am not 21 years old yet,1,2,3,1,2,3,2,1,1,1,2,1,2,3,1,0,2,2,3,2,1
682d8b0e89338b89a9bfeec286eee938,32,1,Asian Chinese,Single,No; but in frequent contact with non-resident mother,1,0,1,2,1,2,2,1,3,1,3,2,2,2,1,1,2,2,2,1,1
bac634ab2b65a3567c279fff0ef582db,32,1,Other Asians,Single,Yes,2,0,2,2,3,0,1,3,0,3,1,2,0,2,2,0,3,2,2,2,1
3dc3132b6872b268add6ce239282bc0f,36,1,Native American,Single,I am not 21 years old yet,2,2,3,1,1,1,2,0,3,2,3,0,2,1,1,3,3,2,3,1,1
6ab91086ffd7cb26084820e4682030bc,37,3,Other Asians,Single,No; but in frequent contact with non-resident father,2,3,3,1,3,0,1,2,1,2,1,0,2,2,3,1,2,2,3,3,1
4a39439a0bd75630a33bfad56846740a,36,0,White-American,Single,I am not 21 years old yet,3,3,3,0,0,3,1,1,3,2,3,2,3,0,1,0,2,2,3,1,1
f240c4711bb126e675c5243a218e8020,31,4,White-American,Single,I am not 21 years old yet,2,0,3,0,2,2,1,1,3,1,2,0,2,1,1,2,2,1,2,3,1
ff80904b7b68beac52c56a2225b0b956,36,1,,,,0,3,0,1,0,3,1,3,2,2,2,0,1,3,2,2,3,3,3,2,1
c59c73e2903106687ca2c2cdddb81e22,31,0,African-American or African-European,Single,No; and not in frequent contact with non-resident father,3,1,3,0,2,1,2,0,3,0,1,1,2,2,0,3,0,3,3,1,1
724a041b9477e6da58dcba0abf3e1b83,30,3,White-American,Married with child/children,No; and not in frequent contact with non-resident father,0,3,0,1,2,2,2,3,1,3,1,2,2,0,3,3,1,0,1,0,1
650dcfe7b3db65d0e8589d5bc27925ff,33,2,White-American,Single,No; and not in frequent contact with non-resident father,0,2,0,0,3,3,3,2,2,1,3,2,3,0,1,2,0,3,1,2,1
2fbefca6448d373830ba762edb69cf09,31,1,,,,0,3,2,1,2,3,2,2,2,1,1,0,1,2,1,2,2,3,0,1,1
6328f0fb3d9e4d1277446663f93482cc,36,0,Others,Living with an unmarried partner,I am not 21 years old yet,3,3,3,0,3,3,2,1,3,3,1,0,3,2,2,1,0,0,2,1,1
9ce5a8605ef2f72e3622896533b10b9d,34,3,Other Asians,Single,Yes,2,3,3,3,3,1,0,0,3,2,3,1,3,1,0,0,3,0,3,0,1
b27052d72d8d2d7c5d381878130b5481,40,3,White-American,Married with child/children,Yes,3,1,3,0,3,1,3,2,1,0,3,0,3,3,3,3,1,1,3,3,1
40575a04c3175db495a4d89b6860d809,30,2,White-American,Single,I am not 21 years old yet,3,0,2,3,2,2,1,0,1,1,2,2,0,2,1,2,0,3,2,1,1
ffa81918faec5c16160c545c8fb60b3f,39,2,Other Asians,Single,I am not 21 years old yet,2,3,3,1,3,2,1,0,3,1,3,3,1,3,2,0,2,1,3,2,1
7b0d825445ac43275ba4f8ce14e1ed5c,45,0,White-American,Single,Other,3,3,3,1,2,2,3,1,3,2,3,0,3,2,3,0,3,3,3,2,1
244e39be30fc5869645e818b5c740ea5,32,2,White-other nationalities,Single,No; and not in frequent contact with non-resident father,2,1,2,3,1,0,2,1,3,2,1,3,1,2,1,1,1,1,1,3,1
0c2d58ad70e9bf384a0bf4026f7aac73,31,1,White-American,Living with an unmarried partner,No; and not in frequent contact with non-resident father,1,1,2,1,1,0,3,3,3,2,0,0,3,0,3,1,2,1,3,1,1
dc2547032e742daf6498d817d467baad,43,2,White-American,Single,No; and not in frequent contact with non-resident mother,1,2,2,0,3,0,3,2,3,3,1,3,3,2,2,1,3,3,3,3,1
b4df192aa68519bad438920735e802c0,35,0,White-American,Single,I am not 21 years old yet,2,0,2,0,0,3,3,1,3,3,0,0,3,0,3,1,3,3,2,3,1
f9ae3733bae2a3cbe35bd756ccce4d91,42,2,White-American,Divorced,No; and not in frequent contact with non-resident father,2,2,3,0,3,1,3,2,3,2,2,2,1,1,1,3,3,3,3,2,1
5e34486308dfa39c91780a440632f724,34,2,,,,1,3,3,1,1,1,1,3,2,0,2,3,1,3,0,3,1,2,0,3,1
f1b9957ad9d63642c7b04fb8a30aaf9a,30,0,White-American,Single,Yes,2,0,3,3,1,0,0,3,3,2,0,3,0,0,2,3,1,0,1,3,1
21d43a97ca7f51677302135d657bddf7,36,3,White-American,Married with child/children,Yes,2,0,3,0,2,3,1,2,1,2,2,3,3,1,1,1,1,3,3,2,1
7710e2148fd05e5ca145db66dcc010fa,44,2,White-American,Single,I am not 21 years old yet,3,3,1,0,3,3,3,0,3,3,3,3,2,3,3,0,3,1,1,3,1
79f33b896538f4548d334ef5a4f208ce,35,2,White-American,Single,I am not 21 years old yet,1,0,3,3,2,2,1,3,2,1,3,0,2,0,3,2,2,2,1,2,1
5757a0be6a9fba552680eb1106df3673,33,0,African-American or African-European,Single,I am not 21 years old yet,3,3,1,0,2,2,2,1,2,1,1,2,1,1,2,2,2,2,1,2,1
48de9dbe98d2d1faee6128b9cdbce903,36,2,White-other nationalities,Single,No; and not in frequent contact with non-resident father,2,3,2,3,3,0,3,3,0,2,3,1,2,1,1,1,2,2,1,1,1
5b73fda4dc899e8b97fa3d72f2dd7ae5,33,2,Others,Living with an unmarried partner,Yes,3,1,1,1,2,2,2,1,2,2,2,2,1,1,2,2,1,1,2,2,1
439f3d6687e9826c9f511eb794b7f17a,35,1,Other Asians,Single,I am not 21 years old yet,2,1,0,3,2,3,2,1,2,2,3,3,1,1,1,0,2,2,2,2,1
3a946142244dec06c80278c2a38a852c,48,0,White-British,Single,No; but in frequent contact with non-resident father,3,3,3,3,0,3,1,1,2,3,3,1,3,3,2,3,3,2,3,3,1
e5ce554613d0de0977d80c36632ec129,30,4,White-British,Single,I am not 21 years old yet,0,0,1,2,3,1,3,1,2,1,2,1,0,3,2,1,1,2,1,3,1
f67dc900ac399fc2ed65294faa591a86,35,1,White-other nationalities,Living with an unmarried partner,Yes,0,0,3,2,2,3,3,0,0,3,3,0,1,3,2,1,3,3,1,2,1
845393074d907aa766c088442a2f1308,33,2,White-American,Married with child/children,No; and not in frequent contact with non-resident father,1,2,2,2,2,2,1,1,1,2,1,0,1,2,3,2,2,3,1,2,1
0ebb769245380c239029b2cb2b6e6b1e,36,2,Other Asians,Single,I am not 21 years old yet,2,2,3,3,2,1,1,0,1,1,3,0,3,2,2,2,2,2,1,3,1
ca6379ae4ac1d0fae82f2b9293b2eceb,32,4,Others,Living with an unmarried partner,I am not 21 years old yet,2,3,3,1,1,2,2,2,2,1,1,0,2,2,0,1,1,2,2,2,1
c7c082445415ffdb67e9de08f259e8e5,33,0,Others,Married with child/children,Yes,2,1,1,3,1,0,3,3,1,1,2,3,2,2,1,3,2,2,0,0,1
b77848f3cbf4a8a87d33d95aa41abe48,34,1,Other Asians,Single,Yes,2,2,2,3,0,2,2,2,1,1,2,1,2,2,2,1,2,2,2,1,1
5e58e13a371c45b44efcf60a630a992c,30,0,White-British,Living with an unmarried partner,I am not 21 years old yet,0,2,0,3,3,3,3,3,0,0,0,0,3,0,0,3,1,0,3,3,1
661d7017ad6e5a5d09a8841917fea5bf,38,3,Other Asians,Single,Yes,3,2,2,1,2,1,3,3,2,2,3,2,1,2,2,1,1,1,2,2,1
19086fa4d04d7203f0b7702f0a76de45,34,2,Others,Single,Yes,3,0,2,1,2,0,2,3,2,2,2,2,2,0,1,1,2,3,3,1,1
98500a6228747f60e2230f46d7d61c12,30,1,White-American,Single,No; but in frequent contact with non-resident father,1,3,3,3,2,1,2,1,1,0,2,0,2,1,1,2,2,1,1,1,1
772b14ee8620c09f94102a9286c882f1,41,0,African-American or African-European,Single,No; and not in frequent contact with non-resident father,1,0,0,3,3,3,2,2,3,2,2,2,3,2,1,0,3,3,3,3,1
ec8f396f6abe7aca58bfa8a43d6f5a7a,31,0,,,,2,1,1,0,2,2,1,1,1,3,3,2,1,3,2,1,2,1,0,2,1
cdc1f4fe532c2a2443bc2f5ea3dc7d0a,33,2,White-other nationalities,Single,I am not 21 years old yet,0,1,1,1,3,1,1,3,0,3,0,1,3,1,3,3,3,2,0,3,1
